<?xml version="1.0" encoding="UTF-8"?>
<session version="1.0">
<refactoring comment="Delete 4 resources" deleteContents="true" description="Delete 4 resources" element1="/cap_2015_06_09a" element2="/cap_2015_06_09a_bsp" element3="/cap_2015_06_09a_HW" element4="/cap_2015_06_09a_HWa" flags="7" id="org.eclipse.ltk.core.refactoring.delete.resources" resources="4" stamp="1433892763237"/>
</session>