Copyright 1986-2014 Xilinx, Inc. All Rights Reserved.
---------------------------------------------------------------------------------------------
| Tool Version : Vivado v.2014.2 (win64) Build 932637 Wed Jun 11 13:33:10 MDT 2014
| Date         : Sun Jun 07 21:33:31 2015
| Host         : brian-P75 running 64-bit major release  (build 9200)
| Command      : report_control_sets -verbose -file kaos_rx_9361_ifc_control_sets_placed.rpt
| Design       : kaos_rx_9361_ifc
| Device       : xc7z020
---------------------------------------------------------------------------------------------

Control Set Information

Table of Contents
-----------------
1. Summary
2. Flip-Flop Distribution
3. Detailed Control Set Information

1. Summary
----------

+-------------------------------------------------------------------+-------+
|                               Status                              | Count |
+-------------------------------------------------------------------+-------+
| Number of unique control sets                                     |     5 |
| Minimum Number of register sites lost to control set restrictions |     7 |
+-------------------------------------------------------------------+-------+


2. Flip-Flop Distribution
-------------------------

+--------------+-----------------------+------------------------+-----------------+--------------+
| Clock Enable | Synchronous Set/Reset | Asynchronous Set/Reset | Total Registers | Total Slices |
+--------------+-----------------------+------------------------+-----------------+--------------+
| No           | No                    | No                     |               1 |            1 |
| No           | No                    | Yes                    |               0 |            0 |
| No           | Yes                   | No                     |               0 |            0 |
| Yes          | No                    | No                     |              64 |           37 |
| Yes          | No                    | Yes                    |               0 |            0 |
| Yes          | Yes                   | No                     |               0 |            0 |
+--------------+-----------------------+------------------------+-----------------+--------------+


3. Detailed Control Set Information
-----------------------------------

+----------------+---------------------+------------------+------------------+----------------+
|  Clock Signal  |    Enable Signal    | Set/Reset Signal | Slice Load Count | Bel Load Count |
+----------------+---------------------+------------------+------------------+----------------+
|  clk_IBUF_BUFG |                     |                  |                1 |              1 |
|  clk_IBUF_BUFG | adc_enable_ch3_IBUF |                  |               11 |             16 |
|  clk_IBUF_BUFG | adc_enable_ch2_IBUF |                  |                7 |             16 |
|  clk_IBUF_BUFG | adc_enable_ch1_IBUF |                  |               10 |             16 |
|  clk_IBUF_BUFG | adc_enable_ch0_IBUF |                  |                9 |             16 |
+----------------+---------------------+------------------+------------------+----------------+


