verilog xil_defaultlib  "c:/Users/brian/GitHub/hdl/projects/fmcomms1/zed/fmcomms1_zed.srcs/sources_1/ipshared/xilinx.com/processing_system7_bfm_v2_0/738df366/hdl/processing_system7_bfm_v2_0_arb_wr.v"
verilog xil_defaultlib  "c:/Users/brian/GitHub/hdl/projects/fmcomms1/zed/fmcomms1_zed.srcs/sources_1/ipshared/xilinx.com/processing_system7_bfm_v2_0/738df366/hdl/processing_system7_bfm_v2_0_arb_rd.v"
verilog xil_defaultlib  "c:/Users/brian/GitHub/hdl/projects/fmcomms1/zed/fmcomms1_zed.srcs/sources_1/ipshared/xilinx.com/processing_system7_bfm_v2_0/738df366/hdl/processing_system7_bfm_v2_0_arb_wr_4.v"
verilog xil_defaultlib  "c:/Users/brian/GitHub/hdl/projects/fmcomms1/zed/fmcomms1_zed.srcs/sources_1/ipshared/xilinx.com/processing_system7_bfm_v2_0/738df366/hdl/processing_system7_bfm_v2_0_arb_rd_4.v"
verilog xil_defaultlib  "c:/Users/brian/GitHub/hdl/projects/fmcomms1/zed/fmcomms1_zed.srcs/sources_1/ipshared/xilinx.com/processing_system7_bfm_v2_0/738df366/hdl/processing_system7_bfm_v2_0_arb_hp2_3.v"
verilog xil_defaultlib  "c:/Users/brian/GitHub/hdl/projects/fmcomms1/zed/fmcomms1_zed.srcs/sources_1/ipshared/xilinx.com/processing_system7_bfm_v2_0/738df366/hdl/processing_system7_bfm_v2_0_arb_hp0_1.v"
verilog xil_defaultlib  "c:/Users/brian/GitHub/hdl/projects/fmcomms1/zed/fmcomms1_zed.srcs/sources_1/ipshared/xilinx.com/processing_system7_bfm_v2_0/738df366/hdl/processing_system7_bfm_v2_0_ssw_hp.v"
verilog xil_defaultlib  "c:/Users/brian/GitHub/hdl/projects/fmcomms1/zed/fmcomms1_zed.srcs/sources_1/ipshared/xilinx.com/processing_system7_bfm_v2_0/738df366/hdl/processing_system7_bfm_v2_0_sparse_mem.v"
verilog xil_defaultlib  "c:/Users/brian/GitHub/hdl/projects/fmcomms1/zed/fmcomms1_zed.srcs/sources_1/ipshared/xilinx.com/processing_system7_bfm_v2_0/738df366/hdl/processing_system7_bfm_v2_0_reg_map.v"
verilog xil_defaultlib  "c:/Users/brian/GitHub/hdl/projects/fmcomms1/zed/fmcomms1_zed.srcs/sources_1/ipshared/xilinx.com/processing_system7_bfm_v2_0/738df366/hdl/processing_system7_bfm_v2_0_ocm_mem.v"
verilog xil_defaultlib  "c:/Users/brian/GitHub/hdl/projects/fmcomms1/zed/fmcomms1_zed.srcs/sources_1/ipshared/xilinx.com/processing_system7_bfm_v2_0/738df366/hdl/processing_system7_bfm_v2_0_intr_wr_mem.v"
verilog xil_defaultlib  "c:/Users/brian/GitHub/hdl/projects/fmcomms1/zed/fmcomms1_zed.srcs/sources_1/ipshared/xilinx.com/processing_system7_bfm_v2_0/738df366/hdl/processing_system7_bfm_v2_0_intr_rd_mem.v"
verilog xil_defaultlib  "c:/Users/brian/GitHub/hdl/projects/fmcomms1/zed/fmcomms1_zed.srcs/sources_1/ipshared/xilinx.com/processing_system7_bfm_v2_0/738df366/hdl/processing_system7_bfm_v2_0_fmsw_gp.v"
verilog xil_defaultlib  "c:/Users/brian/GitHub/hdl/projects/fmcomms1/zed/fmcomms1_zed.srcs/sources_1/ipshared/xilinx.com/processing_system7_bfm_v2_0/738df366/hdl/processing_system7_bfm_v2_0_regc.v"
verilog xil_defaultlib  "c:/Users/brian/GitHub/hdl/projects/fmcomms1/zed/fmcomms1_zed.srcs/sources_1/ipshared/xilinx.com/processing_system7_bfm_v2_0/738df366/hdl/processing_system7_bfm_v2_0_ocmc.v"
verilog xil_defaultlib  "c:/Users/brian/GitHub/hdl/projects/fmcomms1/zed/fmcomms1_zed.srcs/sources_1/ipshared/xilinx.com/processing_system7_bfm_v2_0/738df366/hdl/processing_system7_bfm_v2_0_interconnect_model.v"
verilog xil_defaultlib  "c:/Users/brian/GitHub/hdl/projects/fmcomms1/zed/fmcomms1_zed.srcs/sources_1/ipshared/xilinx.com/processing_system7_bfm_v2_0/738df366/hdl/processing_system7_bfm_v2_0_gen_reset.v"
verilog xil_defaultlib  "c:/Users/brian/GitHub/hdl/projects/fmcomms1/zed/fmcomms1_zed.srcs/sources_1/ipshared/xilinx.com/processing_system7_bfm_v2_0/738df366/hdl/processing_system7_bfm_v2_0_gen_clock.v"
verilog xil_defaultlib  "c:/Users/brian/GitHub/hdl/projects/fmcomms1/zed/fmcomms1_zed.srcs/sources_1/ipshared/xilinx.com/processing_system7_bfm_v2_0/738df366/hdl/processing_system7_bfm_v2_0_ddrc.v"
verilog xil_defaultlib  "c:/Users/brian/GitHub/hdl/projects/fmcomms1/zed/fmcomms1_zed.srcs/sources_1/ipshared/xilinx.com/processing_system7_bfm_v2_0/738df366/hdl/processing_system7_bfm_v2_0_axi_slave.v"
verilog xil_defaultlib  "c:/Users/brian/GitHub/hdl/projects/fmcomms1/zed/fmcomms1_zed.srcs/sources_1/ipshared/xilinx.com/processing_system7_bfm_v2_0/738df366/hdl/processing_system7_bfm_v2_0_axi_master.v"
verilog xil_defaultlib  "c:/Users/brian/GitHub/hdl/projects/fmcomms1/zed/fmcomms1_zed.srcs/sources_1/ipshared/xilinx.com/processing_system7_bfm_v2_0/738df366/hdl/processing_system7_bfm_v2_0_afi_slave.v"
verilog xil_defaultlib  "c:/Users/brian/GitHub/hdl/projects/fmcomms1/zed/fmcomms1_zed.srcs/sources_1/ipshared/xilinx.com/processing_system7_bfm_v2_0/738df366/hdl/processing_system7_bfm_v2_0_processing_system7_bfm.v"
verilog xil_defaultlib  "c:/Users/brian/GitHub/hdl/projects/fmcomms1/zed/fmcomms1_zed.srcs/sources_1/bd/system/ip/system_sys_ps7_0/sim/system_sys_ps7_0.v"
vhdl blk_mem_gen_v8_2 "c:/Users/brian/GitHub/hdl/projects/fmcomms1/zed/fmcomms1_zed.srcs/sources_1/ipshared/xilinx.com/blk_mem_gen_v8_2/ebbf7913/simulation/blk_mem_gen_v8_2.vhd"
vhdl fifo_generator_v12_0 "c:/Users/brian/GitHub/hdl/projects/fmcomms1/zed/fmcomms1_zed.srcs/sources_1/ipshared/xilinx.com/fifo_generator_v12_0/8b540c64/simulation/fifo_generator_vhdl_beh.vhd"
vhdl fifo_generator_v12_0 "c:/Users/brian/GitHub/hdl/projects/fmcomms1/zed/fmcomms1_zed.srcs/sources_1/ipshared/xilinx.com/fifo_generator_v12_0/8b540c64/hdl/fifo_generator_v12_0_pkg.vhd"
vhdl fifo_generator_v12_0 "c:/Users/brian/GitHub/hdl/projects/fmcomms1/zed/fmcomms1_zed.srcs/sources_1/ipshared/xilinx.com/fifo_generator_v12_0/8b540c64/hdl/common/input_blk.vhd"
vhdl fifo_generator_v12_0 "c:/Users/brian/GitHub/hdl/projects/fmcomms1/zed/fmcomms1_zed.srcs/sources_1/ipshared/xilinx.com/fifo_generator_v12_0/8b540c64/hdl/common/output_blk.vhd"
vhdl fifo_generator_v12_0 "c:/Users/brian/GitHub/hdl/projects/fmcomms1/zed/fmcomms1_zed.srcs/sources_1/ipshared/xilinx.com/fifo_generator_v12_0/8b540c64/hdl/common/shft_wrapper.vhd"
vhdl fifo_generator_v12_0 "c:/Users/brian/GitHub/hdl/projects/fmcomms1/zed/fmcomms1_zed.srcs/sources_1/ipshared/xilinx.com/fifo_generator_v12_0/8b540c64/hdl/common/shft_ram.vhd"
vhdl fifo_generator_v12_0 "c:/Users/brian/GitHub/hdl/projects/fmcomms1/zed/fmcomms1_zed.srcs/sources_1/ipshared/xilinx.com/fifo_generator_v12_0/8b540c64/hdl/common/wr_pf_as.vhd"
vhdl fifo_generator_v12_0 "c:/Users/brian/GitHub/hdl/projects/fmcomms1/zed/fmcomms1_zed.srcs/sources_1/ipshared/xilinx.com/fifo_generator_v12_0/8b540c64/hdl/common/wr_pf_ss.vhd"
vhdl fifo_generator_v12_0 "c:/Users/brian/GitHub/hdl/projects/fmcomms1/zed/fmcomms1_zed.srcs/sources_1/ipshared/xilinx.com/fifo_generator_v12_0/8b540c64/hdl/common/rd_pe_as.vhd"
vhdl fifo_generator_v12_0 "c:/Users/brian/GitHub/hdl/projects/fmcomms1/zed/fmcomms1_zed.srcs/sources_1/ipshared/xilinx.com/fifo_generator_v12_0/8b540c64/hdl/common/rd_pe_ss.vhd"
vhdl fifo_generator_v12_0 "c:/Users/brian/GitHub/hdl/projects/fmcomms1/zed/fmcomms1_zed.srcs/sources_1/ipshared/xilinx.com/fifo_generator_v12_0/8b540c64/hdl/builtin/delay.vhd"
vhdl fifo_generator_v12_0 "c:/Users/brian/GitHub/hdl/projects/fmcomms1/zed/fmcomms1_zed.srcs/sources_1/ipshared/xilinx.com/fifo_generator_v12_0/8b540c64/hdl/builtin/bin_cntr.vhd"
vhdl fifo_generator_v12_0 "c:/Users/brian/GitHub/hdl/projects/fmcomms1/zed/fmcomms1_zed.srcs/sources_1/ipshared/xilinx.com/fifo_generator_v12_0/8b540c64/hdl/builtin/clk_x_pntrs_builtin.vhd"
vhdl fifo_generator_v12_0 "c:/Users/brian/GitHub/hdl/projects/fmcomms1/zed/fmcomms1_zed.srcs/sources_1/ipshared/xilinx.com/fifo_generator_v12_0/8b540c64/hdl/builtin/logic_builtin.vhd"
vhdl fifo_generator_v12_0 "c:/Users/brian/GitHub/hdl/projects/fmcomms1/zed/fmcomms1_zed.srcs/sources_1/ipshared/xilinx.com/fifo_generator_v12_0/8b540c64/hdl/builtin/builtin_prim.vhd"
vhdl fifo_generator_v12_0 "c:/Users/brian/GitHub/hdl/projects/fmcomms1/zed/fmcomms1_zed.srcs/sources_1/ipshared/xilinx.com/fifo_generator_v12_0/8b540c64/hdl/builtin/builtin_extdepth.vhd"
vhdl fifo_generator_v12_0 "c:/Users/brian/GitHub/hdl/projects/fmcomms1/zed/fmcomms1_zed.srcs/sources_1/ipshared/xilinx.com/fifo_generator_v12_0/8b540c64/hdl/builtin/builtin_top.vhd"
vhdl fifo_generator_v12_0 "c:/Users/brian/GitHub/hdl/projects/fmcomms1/zed/fmcomms1_zed.srcs/sources_1/ipshared/xilinx.com/fifo_generator_v12_0/8b540c64/hdl/builtin/reset_builtin.vhd"
vhdl fifo_generator_v12_0 "c:/Users/brian/GitHub/hdl/projects/fmcomms1/zed/fmcomms1_zed.srcs/sources_1/ipshared/xilinx.com/fifo_generator_v12_0/8b540c64/hdl/builtin/builtin_prim_v6.vhd"
vhdl fifo_generator_v12_0 "c:/Users/brian/GitHub/hdl/projects/fmcomms1/zed/fmcomms1_zed.srcs/sources_1/ipshared/xilinx.com/fifo_generator_v12_0/8b540c64/hdl/builtin/builtin_extdepth_v6.vhd"
vhdl fifo_generator_v12_0 "c:/Users/brian/GitHub/hdl/projects/fmcomms1/zed/fmcomms1_zed.srcs/sources_1/ipshared/xilinx.com/fifo_generator_v12_0/8b540c64/hdl/builtin/builtin_extdepth_low_latency.vhd"
vhdl fifo_generator_v12_0 "c:/Users/brian/GitHub/hdl/projects/fmcomms1/zed/fmcomms1_zed.srcs/sources_1/ipshared/xilinx.com/fifo_generator_v12_0/8b540c64/hdl/builtin/builtin_top_v6.vhd"
vhdl fifo_generator_v12_0 "c:/Users/brian/GitHub/hdl/projects/fmcomms1/zed/fmcomms1_zed.srcs/sources_1/ipshared/xilinx.com/fifo_generator_v12_0/8b540c64/hdl/builtin/fifo_generator_v12_0_builtin.vhd"
vhdl fifo_generator_v12_0 "c:/Users/brian/GitHub/hdl/projects/fmcomms1/zed/fmcomms1_zed.srcs/sources_1/ipshared/xilinx.com/fifo_generator_v12_0/8b540c64/hdl/ramfifo/bram_sync_reg.vhd"
vhdl fifo_generator_v12_0 "c:/Users/brian/GitHub/hdl/projects/fmcomms1/zed/fmcomms1_zed.srcs/sources_1/ipshared/xilinx.com/fifo_generator_v12_0/8b540c64/hdl/ramfifo/bram_fifo_rstlogic.vhd"
vhdl fifo_generator_v12_0 "c:/Users/brian/GitHub/hdl/projects/fmcomms1/zed/fmcomms1_zed.srcs/sources_1/ipshared/xilinx.com/fifo_generator_v12_0/8b540c64/hdl/ramfifo/reset_blk_ramfifo.vhd"
vhdl fifo_generator_v12_0 "c:/Users/brian/GitHub/hdl/projects/fmcomms1/zed/fmcomms1_zed.srcs/sources_1/ipshared/xilinx.com/fifo_generator_v12_0/8b540c64/hdl/ramfifo/axi_reg_slice.vhd"
vhdl fifo_generator_v12_0 "c:/Users/brian/GitHub/hdl/projects/fmcomms1/zed/fmcomms1_zed.srcs/sources_1/ipshared/xilinx.com/fifo_generator_v12_0/8b540c64/hdl/fifo_generator_top_bi_sim.vhd"
vhdl fifo_generator_v12_0 "c:/Users/brian/GitHub/hdl/projects/fmcomms1/zed/fmcomms1_zed.srcs/sources_1/ipshared/xilinx.com/fifo_generator_v12_0/8b540c64/hdl/fifo_generator_v12_0_synth.vhd"
vhdl fifo_generator_v12_0 "c:/Users/brian/GitHub/hdl/projects/fmcomms1/zed/fmcomms1_zed.srcs/sources_1/ipshared/xilinx.com/fifo_generator_v12_0/8b540c64/hdl/fifo_generator_v12_0_top.vhd"
vhdl proc_common_v4_0 "c:/Users/brian/GitHub/hdl/projects/fmcomms1/zed/fmcomms1_zed.srcs/sources_1/ipshared/xilinx.com/proc_common_v4_0/e2794af0/hdl/src/vhdl/family.vhd"
vhdl proc_common_v4_0 "c:/Users/brian/GitHub/hdl/projects/fmcomms1/zed/fmcomms1_zed.srcs/sources_1/ipshared/xilinx.com/proc_common_v4_0/e2794af0/hdl/src/vhdl/family_support.vhd"
vhdl proc_common_v4_0 "c:/Users/brian/GitHub/hdl/projects/fmcomms1/zed/fmcomms1_zed.srcs/sources_1/ipshared/xilinx.com/proc_common_v4_0/e2794af0/hdl/src/vhdl/coregen_comp_defs.vhd"
vhdl proc_common_v4_0 "c:/Users/brian/GitHub/hdl/projects/fmcomms1/zed/fmcomms1_zed.srcs/sources_1/ipshared/xilinx.com/proc_common_v4_0/e2794af0/hdl/src/vhdl/common_types_pkg.vhd"
vhdl proc_common_v4_0 "c:/Users/brian/GitHub/hdl/projects/fmcomms1/zed/fmcomms1_zed.srcs/sources_1/ipshared/xilinx.com/proc_common_v4_0/e2794af0/hdl/src/vhdl/proc_common_pkg.vhd"
vhdl proc_common_v4_0 "c:/Users/brian/GitHub/hdl/projects/fmcomms1/zed/fmcomms1_zed.srcs/sources_1/ipshared/xilinx.com/proc_common_v4_0/e2794af0/hdl/src/vhdl/conv_funs_pkg.vhd"
vhdl proc_common_v4_0 "c:/Users/brian/GitHub/hdl/projects/fmcomms1/zed/fmcomms1_zed.srcs/sources_1/ipshared/xilinx.com/proc_common_v4_0/e2794af0/hdl/src/vhdl/ipif_pkg.vhd"
vhdl proc_common_v4_0 "c:/Users/brian/GitHub/hdl/projects/fmcomms1/zed/fmcomms1_zed.srcs/sources_1/ipshared/xilinx.com/proc_common_v4_0/e2794af0/hdl/src/vhdl/async_fifo_fg.vhd"
vhdl proc_common_v4_0 "c:/Users/brian/GitHub/hdl/projects/fmcomms1/zed/fmcomms1_zed.srcs/sources_1/ipshared/xilinx.com/proc_common_v4_0/e2794af0/hdl/src/vhdl/sync_fifo_fg.vhd"
vhdl proc_common_v4_0 "c:/Users/brian/GitHub/hdl/projects/fmcomms1/zed/fmcomms1_zed.srcs/sources_1/ipshared/xilinx.com/proc_common_v4_0/e2794af0/hdl/src/vhdl/basic_sfifo_fg.vhd"
vhdl proc_common_v4_0 "c:/Users/brian/GitHub/hdl/projects/fmcomms1/zed/fmcomms1_zed.srcs/sources_1/ipshared/xilinx.com/proc_common_v4_0/e2794af0/hdl/src/vhdl/blk_mem_gen_wrapper.vhd"
vhdl proc_common_v4_0 "c:/Users/brian/GitHub/hdl/projects/fmcomms1/zed/fmcomms1_zed.srcs/sources_1/ipshared/xilinx.com/proc_common_v4_0/e2794af0/hdl/src/vhdl/addsub.vhd"
vhdl proc_common_v4_0 "c:/Users/brian/GitHub/hdl/projects/fmcomms1/zed/fmcomms1_zed.srcs/sources_1/ipshared/xilinx.com/proc_common_v4_0/e2794af0/hdl/src/vhdl/counter_bit.vhd"
vhdl proc_common_v4_0 "c:/Users/brian/GitHub/hdl/projects/fmcomms1/zed/fmcomms1_zed.srcs/sources_1/ipshared/xilinx.com/proc_common_v4_0/e2794af0/hdl/src/vhdl/counter.vhd"
vhdl proc_common_v4_0 "c:/Users/brian/GitHub/hdl/projects/fmcomms1/zed/fmcomms1_zed.srcs/sources_1/ipshared/xilinx.com/proc_common_v4_0/e2794af0/hdl/src/vhdl/direct_path_cntr.vhd"
vhdl proc_common_v4_0 "c:/Users/brian/GitHub/hdl/projects/fmcomms1/zed/fmcomms1_zed.srcs/sources_1/ipshared/xilinx.com/proc_common_v4_0/e2794af0/hdl/src/vhdl/direct_path_cntr_ai.vhd"
vhdl proc_common_v4_0 "c:/Users/brian/GitHub/hdl/projects/fmcomms1/zed/fmcomms1_zed.srcs/sources_1/ipshared/xilinx.com/proc_common_v4_0/e2794af0/hdl/src/vhdl/down_counter.vhd"
vhdl proc_common_v4_0 "c:/Users/brian/GitHub/hdl/projects/fmcomms1/zed/fmcomms1_zed.srcs/sources_1/ipshared/xilinx.com/proc_common_v4_0/e2794af0/hdl/src/vhdl/eval_timer.vhd"
vhdl proc_common_v4_0 "c:/Users/brian/GitHub/hdl/projects/fmcomms1/zed/fmcomms1_zed.srcs/sources_1/ipshared/xilinx.com/proc_common_v4_0/e2794af0/hdl/src/vhdl/inferred_lut4.vhd"
vhdl proc_common_v4_0 "c:/Users/brian/GitHub/hdl/projects/fmcomms1/zed/fmcomms1_zed.srcs/sources_1/ipshared/xilinx.com/proc_common_v4_0/e2794af0/hdl/src/vhdl/ipif_steer.vhd"
vhdl proc_common_v4_0 "c:/Users/brian/GitHub/hdl/projects/fmcomms1/zed/fmcomms1_zed.srcs/sources_1/ipshared/xilinx.com/proc_common_v4_0/e2794af0/hdl/src/vhdl/ipif_steer128.vhd"
vhdl proc_common_v4_0 "c:/Users/brian/GitHub/hdl/projects/fmcomms1/zed/fmcomms1_zed.srcs/sources_1/ipshared/xilinx.com/proc_common_v4_0/e2794af0/hdl/src/vhdl/ipif_mirror128.vhd"
vhdl proc_common_v4_0 "c:/Users/brian/GitHub/hdl/projects/fmcomms1/zed/fmcomms1_zed.srcs/sources_1/ipshared/xilinx.com/proc_common_v4_0/e2794af0/hdl/src/vhdl/ld_arith_reg.vhd"
vhdl proc_common_v4_0 "c:/Users/brian/GitHub/hdl/projects/fmcomms1/zed/fmcomms1_zed.srcs/sources_1/ipshared/xilinx.com/proc_common_v4_0/e2794af0/hdl/src/vhdl/ld_arith_reg2.vhd"
vhdl proc_common_v4_0 "c:/Users/brian/GitHub/hdl/projects/fmcomms1/zed/fmcomms1_zed.srcs/sources_1/ipshared/xilinx.com/proc_common_v4_0/e2794af0/hdl/src/vhdl/mux_onehot.vhd"
vhdl proc_common_v4_0 "c:/Users/brian/GitHub/hdl/projects/fmcomms1/zed/fmcomms1_zed.srcs/sources_1/ipshared/xilinx.com/proc_common_v4_0/e2794af0/hdl/src/vhdl/or_bits.vhd"
vhdl proc_common_v4_0 "c:/Users/brian/GitHub/hdl/projects/fmcomms1/zed/fmcomms1_zed.srcs/sources_1/ipshared/xilinx.com/proc_common_v4_0/e2794af0/hdl/src/vhdl/or_muxcy.vhd"
vhdl proc_common_v4_0 "c:/Users/brian/GitHub/hdl/projects/fmcomms1/zed/fmcomms1_zed.srcs/sources_1/ipshared/xilinx.com/proc_common_v4_0/e2794af0/hdl/src/vhdl/or_gate.vhd"
vhdl proc_common_v4_0 "c:/Users/brian/GitHub/hdl/projects/fmcomms1/zed/fmcomms1_zed.srcs/sources_1/ipshared/xilinx.com/proc_common_v4_0/e2794af0/hdl/src/vhdl/or_gate128.vhd"
vhdl proc_common_v4_0 "c:/Users/brian/GitHub/hdl/projects/fmcomms1/zed/fmcomms1_zed.srcs/sources_1/ipshared/xilinx.com/proc_common_v4_0/e2794af0/hdl/src/vhdl/pf_adder_bit.vhd"
vhdl proc_common_v4_0 "c:/Users/brian/GitHub/hdl/projects/fmcomms1/zed/fmcomms1_zed.srcs/sources_1/ipshared/xilinx.com/proc_common_v4_0/e2794af0/hdl/src/vhdl/pf_adder.vhd"
vhdl proc_common_v4_0 "c:/Users/brian/GitHub/hdl/projects/fmcomms1/zed/fmcomms1_zed.srcs/sources_1/ipshared/xilinx.com/proc_common_v4_0/e2794af0/hdl/src/vhdl/pf_counter_bit.vhd"
vhdl proc_common_v4_0 "c:/Users/brian/GitHub/hdl/projects/fmcomms1/zed/fmcomms1_zed.srcs/sources_1/ipshared/xilinx.com/proc_common_v4_0/e2794af0/hdl/src/vhdl/pf_counter.vhd"
vhdl proc_common_v4_0 "c:/Users/brian/GitHub/hdl/projects/fmcomms1/zed/fmcomms1_zed.srcs/sources_1/ipshared/xilinx.com/proc_common_v4_0/e2794af0/hdl/src/vhdl/pf_counter_top.vhd"
vhdl proc_common_v4_0 "c:/Users/brian/GitHub/hdl/projects/fmcomms1/zed/fmcomms1_zed.srcs/sources_1/ipshared/xilinx.com/proc_common_v4_0/e2794af0/hdl/src/vhdl/pf_occ_counter.vhd"
vhdl proc_common_v4_0 "c:/Users/brian/GitHub/hdl/projects/fmcomms1/zed/fmcomms1_zed.srcs/sources_1/ipshared/xilinx.com/proc_common_v4_0/e2794af0/hdl/src/vhdl/pf_occ_counter_top.vhd"
vhdl proc_common_v4_0 "c:/Users/brian/GitHub/hdl/projects/fmcomms1/zed/fmcomms1_zed.srcs/sources_1/ipshared/xilinx.com/proc_common_v4_0/e2794af0/hdl/src/vhdl/pf_dpram_select.vhd"
vhdl proc_common_v4_0 "c:/Users/brian/GitHub/hdl/projects/fmcomms1/zed/fmcomms1_zed.srcs/sources_1/ipshared/xilinx.com/proc_common_v4_0/e2794af0/hdl/src/vhdl/pselect.vhd"
vhdl proc_common_v4_0 "c:/Users/brian/GitHub/hdl/projects/fmcomms1/zed/fmcomms1_zed.srcs/sources_1/ipshared/xilinx.com/proc_common_v4_0/e2794af0/hdl/src/vhdl/pselect_mask.vhd"
vhdl proc_common_v4_0 "c:/Users/brian/GitHub/hdl/projects/fmcomms1/zed/fmcomms1_zed.srcs/sources_1/ipshared/xilinx.com/proc_common_v4_0/e2794af0/hdl/src/vhdl/srl16_fifo.vhd"
vhdl proc_common_v4_0 "c:/Users/brian/GitHub/hdl/projects/fmcomms1/zed/fmcomms1_zed.srcs/sources_1/ipshared/xilinx.com/proc_common_v4_0/e2794af0/hdl/src/vhdl/srl_fifo.vhd"
vhdl proc_common_v4_0 "c:/Users/brian/GitHub/hdl/projects/fmcomms1/zed/fmcomms1_zed.srcs/sources_1/ipshared/xilinx.com/proc_common_v4_0/e2794af0/hdl/src/vhdl/srl_fifo2.vhd"
vhdl proc_common_v4_0 "c:/Users/brian/GitHub/hdl/projects/fmcomms1/zed/fmcomms1_zed.srcs/sources_1/ipshared/xilinx.com/proc_common_v4_0/e2794af0/hdl/src/vhdl/srl_fifo3.vhd"
vhdl proc_common_v4_0 "c:/Users/brian/GitHub/hdl/projects/fmcomms1/zed/fmcomms1_zed.srcs/sources_1/ipshared/xilinx.com/proc_common_v4_0/e2794af0/hdl/src/vhdl/srl_fifo_rbu.vhd"
vhdl proc_common_v4_0 "c:/Users/brian/GitHub/hdl/projects/fmcomms1/zed/fmcomms1_zed.srcs/sources_1/ipshared/xilinx.com/proc_common_v4_0/e2794af0/hdl/src/vhdl/valid_be.vhd"
vhdl proc_common_v4_0 "c:/Users/brian/GitHub/hdl/projects/fmcomms1/zed/fmcomms1_zed.srcs/sources_1/ipshared/xilinx.com/proc_common_v4_0/e2794af0/hdl/src/vhdl/or_with_enable_f.vhd"
vhdl proc_common_v4_0 "c:/Users/brian/GitHub/hdl/projects/fmcomms1/zed/fmcomms1_zed.srcs/sources_1/ipshared/xilinx.com/proc_common_v4_0/e2794af0/hdl/src/vhdl/muxf_struct_f.vhd"
vhdl proc_common_v4_0 "c:/Users/brian/GitHub/hdl/projects/fmcomms1/zed/fmcomms1_zed.srcs/sources_1/ipshared/xilinx.com/proc_common_v4_0/e2794af0/hdl/src/vhdl/cntr_incr_decr_addn_f.vhd"
vhdl proc_common_v4_0 "c:/Users/brian/GitHub/hdl/projects/fmcomms1/zed/fmcomms1_zed.srcs/sources_1/ipshared/xilinx.com/proc_common_v4_0/e2794af0/hdl/src/vhdl/dynshreg_f.vhd"
vhdl proc_common_v4_0 "c:/Users/brian/GitHub/hdl/projects/fmcomms1/zed/fmcomms1_zed.srcs/sources_1/ipshared/xilinx.com/proc_common_v4_0/e2794af0/hdl/src/vhdl/dynshreg_i_f.vhd"
vhdl proc_common_v4_0 "c:/Users/brian/GitHub/hdl/projects/fmcomms1/zed/fmcomms1_zed.srcs/sources_1/ipshared/xilinx.com/proc_common_v4_0/e2794af0/hdl/src/vhdl/mux_onehot_f.vhd"
vhdl proc_common_v4_0 "c:/Users/brian/GitHub/hdl/projects/fmcomms1/zed/fmcomms1_zed.srcs/sources_1/ipshared/xilinx.com/proc_common_v4_0/e2794af0/hdl/src/vhdl/srl_fifo_rbu_f.vhd"
vhdl proc_common_v4_0 "c:/Users/brian/GitHub/hdl/projects/fmcomms1/zed/fmcomms1_zed.srcs/sources_1/ipshared/xilinx.com/proc_common_v4_0/e2794af0/hdl/src/vhdl/srl_fifo_f.vhd"
vhdl proc_common_v4_0 "c:/Users/brian/GitHub/hdl/projects/fmcomms1/zed/fmcomms1_zed.srcs/sources_1/ipshared/xilinx.com/proc_common_v4_0/e2794af0/hdl/src/vhdl/compare_vectors_f.vhd"
vhdl proc_common_v4_0 "c:/Users/brian/GitHub/hdl/projects/fmcomms1/zed/fmcomms1_zed.srcs/sources_1/ipshared/xilinx.com/proc_common_v4_0/e2794af0/hdl/src/vhdl/pselect_f.vhd"
vhdl proc_common_v4_0 "c:/Users/brian/GitHub/hdl/projects/fmcomms1/zed/fmcomms1_zed.srcs/sources_1/ipshared/xilinx.com/proc_common_v4_0/e2794af0/hdl/src/vhdl/counter_f.vhd"
vhdl proc_common_v4_0 "c:/Users/brian/GitHub/hdl/projects/fmcomms1/zed/fmcomms1_zed.srcs/sources_1/ipshared/xilinx.com/proc_common_v4_0/e2794af0/hdl/src/vhdl/or_muxcy_f.vhd"
vhdl proc_common_v4_0 "c:/Users/brian/GitHub/hdl/projects/fmcomms1/zed/fmcomms1_zed.srcs/sources_1/ipshared/xilinx.com/proc_common_v4_0/e2794af0/hdl/src/vhdl/or_gate_f.vhd"
vhdl proc_common_v4_0 "c:/Users/brian/GitHub/hdl/projects/fmcomms1/zed/fmcomms1_zed.srcs/sources_1/ipshared/xilinx.com/proc_common_v4_0/e2794af0/hdl/src/vhdl/soft_reset.vhd"
vhdl proc_common_v4_0 "c:/Users/brian/GitHub/hdl/projects/fmcomms1/zed/fmcomms1_zed.srcs/sources_1/ipshared/xilinx.com/proc_common_v4_0/e2794af0/hdl/src/vhdl/cdc_sync.vhd"
vhdl axi_lite_ipif_v2_0 "c:/Users/brian/GitHub/hdl/projects/fmcomms1/zed/fmcomms1_zed.srcs/sources_1/ipshared/xilinx.com/axi_lite_ipif_v2_0/82c7a66d/hdl/src/vhdl/address_decoder.vhd"
vhdl axi_lite_ipif_v2_0 "c:/Users/brian/GitHub/hdl/projects/fmcomms1/zed/fmcomms1_zed.srcs/sources_1/ipshared/xilinx.com/axi_lite_ipif_v2_0/82c7a66d/hdl/src/vhdl/slave_attachment.vhd"
vhdl axi_lite_ipif_v2_0 "c:/Users/brian/GitHub/hdl/projects/fmcomms1/zed/fmcomms1_zed.srcs/sources_1/ipshared/xilinx.com/axi_lite_ipif_v2_0/82c7a66d/hdl/src/vhdl/axi_lite_ipif.vhd"
vhdl interrupt_control_v3_0 "c:/Users/brian/GitHub/hdl/projects/fmcomms1/zed/fmcomms1_zed.srcs/sources_1/ipshared/xilinx.com/interrupt_control_v3_0/99913152/hdl/src/vhdl/interrupt_control.vhd"
vhdl axi_iic_v2_0 "c:/Users/brian/GitHub/hdl/projects/fmcomms1/zed/fmcomms1_zed.srcs/sources_1/ipshared/xilinx.com/axi_iic_v2_0/67ecd3ed/hdl/src/vhdl/upcnt_n.vhd"
vhdl axi_iic_v2_0 "c:/Users/brian/GitHub/hdl/projects/fmcomms1/zed/fmcomms1_zed.srcs/sources_1/ipshared/xilinx.com/axi_iic_v2_0/67ecd3ed/hdl/src/vhdl/shift8.vhd"
vhdl axi_iic_v2_0 "c:/Users/brian/GitHub/hdl/projects/fmcomms1/zed/fmcomms1_zed.srcs/sources_1/ipshared/xilinx.com/axi_iic_v2_0/67ecd3ed/hdl/src/vhdl/iic_pkg.vhd"
vhdl axi_iic_v2_0 "c:/Users/brian/GitHub/hdl/projects/fmcomms1/zed/fmcomms1_zed.srcs/sources_1/ipshared/xilinx.com/axi_iic_v2_0/67ecd3ed/hdl/src/vhdl/debounce.vhd"
vhdl axi_iic_v2_0 "c:/Users/brian/GitHub/hdl/projects/fmcomms1/zed/fmcomms1_zed.srcs/sources_1/ipshared/xilinx.com/axi_iic_v2_0/67ecd3ed/hdl/src/vhdl/reg_interface.vhd"
vhdl axi_iic_v2_0 "c:/Users/brian/GitHub/hdl/projects/fmcomms1/zed/fmcomms1_zed.srcs/sources_1/ipshared/xilinx.com/axi_iic_v2_0/67ecd3ed/hdl/src/vhdl/iic_control.vhd"
vhdl axi_iic_v2_0 "c:/Users/brian/GitHub/hdl/projects/fmcomms1/zed/fmcomms1_zed.srcs/sources_1/ipshared/xilinx.com/axi_iic_v2_0/67ecd3ed/hdl/src/vhdl/filter.vhd"
vhdl axi_iic_v2_0 "c:/Users/brian/GitHub/hdl/projects/fmcomms1/zed/fmcomms1_zed.srcs/sources_1/ipshared/xilinx.com/axi_iic_v2_0/67ecd3ed/hdl/src/vhdl/dynamic_master.vhd"
vhdl axi_iic_v2_0 "c:/Users/brian/GitHub/hdl/projects/fmcomms1/zed/fmcomms1_zed.srcs/sources_1/ipshared/xilinx.com/axi_iic_v2_0/67ecd3ed/hdl/src/vhdl/axi_ipif_ssp1.vhd"
vhdl axi_iic_v2_0 "c:/Users/brian/GitHub/hdl/projects/fmcomms1/zed/fmcomms1_zed.srcs/sources_1/ipshared/xilinx.com/axi_iic_v2_0/67ecd3ed/hdl/src/vhdl/iic.vhd"
vhdl axi_iic_v2_0 "c:/Users/brian/GitHub/hdl/projects/fmcomms1/zed/fmcomms1_zed.srcs/sources_1/ipshared/xilinx.com/axi_iic_v2_0/67ecd3ed/hdl/src/vhdl/axi_iic.vhd"
vhdl xil_defaultlib "c:/Users/brian/GitHub/hdl/projects/fmcomms1/zed/fmcomms1_zed.srcs/sources_1/bd/system/ip/system_axi_iic_main_0/sim/system_axi_iic_main_0.vhd"
vhdl xil_defaultlib "c:/Users/brian/GitHub/hdl/projects/fmcomms1/zed/fmcomms1_zed.srcs/sources_1/ipshared/analog.com/util_i2c_mixer_v1_0/2db9e2c4/util_i2c_mixer.vhd"
vhdl xil_defaultlib "c:/Users/brian/GitHub/hdl/projects/fmcomms1/zed/fmcomms1_zed.srcs/sources_1/bd/system/ip/system_sys_i2c_mixer_0/sim/system_sys_i2c_mixer_0.vhd"
verilog xil_defaultlib  "c:/Users/brian/GitHub/hdl/projects/fmcomms1/zed/fmcomms1_zed.srcs/sources_1/ipshared/xilinx.com/xlconcat_v2_1/c83f2528/xlconcat.v"
verilog xil_defaultlib  "c:/Users/brian/GitHub/hdl/projects/fmcomms1/zed/fmcomms1_zed.srcs/sources_1/bd/system/ip/system_sys_concat_intc_0/sim/system_sys_concat_intc_0.v"
verilog generic_baseblocks_v2_1  "c:/Users/brian/GitHub/hdl/projects/fmcomms1/zed/fmcomms1_zed.srcs/sources_1/ipshared/xilinx.com/generic_baseblocks_v2_1/e185049c/hdl/verilog/generic_baseblocks_v2_1_carry_and.v"
verilog generic_baseblocks_v2_1  "c:/Users/brian/GitHub/hdl/projects/fmcomms1/zed/fmcomms1_zed.srcs/sources_1/ipshared/xilinx.com/generic_baseblocks_v2_1/e185049c/hdl/verilog/generic_baseblocks_v2_1_carry_latch_and.v"
verilog generic_baseblocks_v2_1  "c:/Users/brian/GitHub/hdl/projects/fmcomms1/zed/fmcomms1_zed.srcs/sources_1/ipshared/xilinx.com/generic_baseblocks_v2_1/e185049c/hdl/verilog/generic_baseblocks_v2_1_carry_latch_or.v"
verilog generic_baseblocks_v2_1  "c:/Users/brian/GitHub/hdl/projects/fmcomms1/zed/fmcomms1_zed.srcs/sources_1/ipshared/xilinx.com/generic_baseblocks_v2_1/e185049c/hdl/verilog/generic_baseblocks_v2_1_carry_or.v"
verilog generic_baseblocks_v2_1  "c:/Users/brian/GitHub/hdl/projects/fmcomms1/zed/fmcomms1_zed.srcs/sources_1/ipshared/xilinx.com/generic_baseblocks_v2_1/e185049c/hdl/verilog/generic_baseblocks_v2_1_carry.v"
verilog generic_baseblocks_v2_1  "c:/Users/brian/GitHub/hdl/projects/fmcomms1/zed/fmcomms1_zed.srcs/sources_1/ipshared/xilinx.com/generic_baseblocks_v2_1/e185049c/hdl/verilog/generic_baseblocks_v2_1_command_fifo.v"
verilog generic_baseblocks_v2_1  "c:/Users/brian/GitHub/hdl/projects/fmcomms1/zed/fmcomms1_zed.srcs/sources_1/ipshared/xilinx.com/generic_baseblocks_v2_1/e185049c/hdl/verilog/generic_baseblocks_v2_1_comparator_mask_static.v"
verilog generic_baseblocks_v2_1  "c:/Users/brian/GitHub/hdl/projects/fmcomms1/zed/fmcomms1_zed.srcs/sources_1/ipshared/xilinx.com/generic_baseblocks_v2_1/e185049c/hdl/verilog/generic_baseblocks_v2_1_comparator_mask.v"
verilog generic_baseblocks_v2_1  "c:/Users/brian/GitHub/hdl/projects/fmcomms1/zed/fmcomms1_zed.srcs/sources_1/ipshared/xilinx.com/generic_baseblocks_v2_1/e185049c/hdl/verilog/generic_baseblocks_v2_1_comparator_sel_mask_static.v"
verilog generic_baseblocks_v2_1  "c:/Users/brian/GitHub/hdl/projects/fmcomms1/zed/fmcomms1_zed.srcs/sources_1/ipshared/xilinx.com/generic_baseblocks_v2_1/e185049c/hdl/verilog/generic_baseblocks_v2_1_comparator_sel_mask.v"
verilog generic_baseblocks_v2_1  "c:/Users/brian/GitHub/hdl/projects/fmcomms1/zed/fmcomms1_zed.srcs/sources_1/ipshared/xilinx.com/generic_baseblocks_v2_1/e185049c/hdl/verilog/generic_baseblocks_v2_1_comparator_sel_static.v"
verilog generic_baseblocks_v2_1  "c:/Users/brian/GitHub/hdl/projects/fmcomms1/zed/fmcomms1_zed.srcs/sources_1/ipshared/xilinx.com/generic_baseblocks_v2_1/e185049c/hdl/verilog/generic_baseblocks_v2_1_comparator_sel.v"
verilog generic_baseblocks_v2_1  "c:/Users/brian/GitHub/hdl/projects/fmcomms1/zed/fmcomms1_zed.srcs/sources_1/ipshared/xilinx.com/generic_baseblocks_v2_1/e185049c/hdl/verilog/generic_baseblocks_v2_1_comparator_static.v"
verilog generic_baseblocks_v2_1  "c:/Users/brian/GitHub/hdl/projects/fmcomms1/zed/fmcomms1_zed.srcs/sources_1/ipshared/xilinx.com/generic_baseblocks_v2_1/e185049c/hdl/verilog/generic_baseblocks_v2_1_comparator.v"
verilog generic_baseblocks_v2_1  "c:/Users/brian/GitHub/hdl/projects/fmcomms1/zed/fmcomms1_zed.srcs/sources_1/ipshared/xilinx.com/generic_baseblocks_v2_1/e185049c/hdl/verilog/generic_baseblocks_v2_1_mux_enc.v"
verilog generic_baseblocks_v2_1  "c:/Users/brian/GitHub/hdl/projects/fmcomms1/zed/fmcomms1_zed.srcs/sources_1/ipshared/xilinx.com/generic_baseblocks_v2_1/e185049c/hdl/verilog/generic_baseblocks_v2_1_mux.v"
verilog generic_baseblocks_v2_1  "c:/Users/brian/GitHub/hdl/projects/fmcomms1/zed/fmcomms1_zed.srcs/sources_1/ipshared/xilinx.com/generic_baseblocks_v2_1/e185049c/hdl/verilog/generic_baseblocks_v2_1_nto1_mux.v"
verilog axi_infrastructure_v1_1  "c:/Users/brian/GitHub/hdl/projects/fmcomms1/zed/fmcomms1_zed.srcs/sources_1/ipshared/xilinx.com/axi_infrastructure_v1_1/e13550d2/hdl/verilog/axi_infrastructure_v1_1_axi2vector.v"
verilog axi_infrastructure_v1_1  "c:/Users/brian/GitHub/hdl/projects/fmcomms1/zed/fmcomms1_zed.srcs/sources_1/ipshared/xilinx.com/axi_infrastructure_v1_1/e13550d2/hdl/verilog/axi_infrastructure_v1_1_axic_srl_fifo.v"
verilog axi_infrastructure_v1_1  "c:/Users/brian/GitHub/hdl/projects/fmcomms1/zed/fmcomms1_zed.srcs/sources_1/ipshared/xilinx.com/axi_infrastructure_v1_1/e13550d2/hdl/verilog/axi_infrastructure_v1_1_vector2axi.v"
verilog axi_register_slice_v2_1  "c:/Users/brian/GitHub/hdl/projects/fmcomms1/zed/fmcomms1_zed.srcs/sources_1/ipshared/xilinx.com/axi_register_slice_v2_1/a2538a4c/hdl/verilog/axi_register_slice_v2_1_axic_register_slice.v"
verilog axi_register_slice_v2_1  "c:/Users/brian/GitHub/hdl/projects/fmcomms1/zed/fmcomms1_zed.srcs/sources_1/ipshared/xilinx.com/axi_register_slice_v2_1/a2538a4c/hdl/verilog/axi_register_slice_v2_1_axi_register_slice.v"
verilog fifo_generator_v12_0  "c:/Users/brian/GitHub/hdl/projects/fmcomms1/zed/fmcomms1_zed.srcs/sources_1/ipshared/xilinx.com/fifo_generator_v12_0/8b540c64/simulation/fifo_generator_vlog_beh.v"
verilog fifo_generator_v12_0  "c:/Users/brian/GitHub/hdl/projects/fmcomms1/zed/fmcomms1_zed.srcs/sources_1/ipshared/xilinx.com/fifo_generator_v12_0/8b540c64/hdl/fifo_generator_v12_0_top.v"
verilog axi_data_fifo_v2_1  "c:/Users/brian/GitHub/hdl/projects/fmcomms1/zed/fmcomms1_zed.srcs/sources_1/ipshared/xilinx.com/axi_data_fifo_v2_1/fcdb10ca/hdl/verilog/axi_data_fifo_v2_1_axic_fifo.v"
verilog axi_data_fifo_v2_1  "c:/Users/brian/GitHub/hdl/projects/fmcomms1/zed/fmcomms1_zed.srcs/sources_1/ipshared/xilinx.com/axi_data_fifo_v2_1/fcdb10ca/hdl/verilog/axi_data_fifo_v2_1_fifo_gen.v"
verilog axi_data_fifo_v2_1  "c:/Users/brian/GitHub/hdl/projects/fmcomms1/zed/fmcomms1_zed.srcs/sources_1/ipshared/xilinx.com/axi_data_fifo_v2_1/fcdb10ca/hdl/verilog/axi_data_fifo_v2_1_axic_srl_fifo.v"
verilog axi_data_fifo_v2_1  "c:/Users/brian/GitHub/hdl/projects/fmcomms1/zed/fmcomms1_zed.srcs/sources_1/ipshared/xilinx.com/axi_data_fifo_v2_1/fcdb10ca/hdl/verilog/axi_data_fifo_v2_1_axic_reg_srl_fifo.v"
verilog axi_data_fifo_v2_1  "c:/Users/brian/GitHub/hdl/projects/fmcomms1/zed/fmcomms1_zed.srcs/sources_1/ipshared/xilinx.com/axi_data_fifo_v2_1/fcdb10ca/hdl/verilog/axi_data_fifo_v2_1_ndeep_srl.v"
verilog axi_data_fifo_v2_1  "c:/Users/brian/GitHub/hdl/projects/fmcomms1/zed/fmcomms1_zed.srcs/sources_1/ipshared/xilinx.com/axi_data_fifo_v2_1/fcdb10ca/hdl/verilog/axi_data_fifo_v2_1_axi_data_fifo.v"
verilog axi_crossbar_v2_1  "c:/Users/brian/GitHub/hdl/projects/fmcomms1/zed/fmcomms1_zed.srcs/sources_1/ipshared/xilinx.com/axi_crossbar_v2_1/379ac2ec/hdl/verilog/axi_crossbar_v2_1_addr_arbiter_sasd.v"
verilog axi_crossbar_v2_1  "c:/Users/brian/GitHub/hdl/projects/fmcomms1/zed/fmcomms1_zed.srcs/sources_1/ipshared/xilinx.com/axi_crossbar_v2_1/379ac2ec/hdl/verilog/axi_crossbar_v2_1_addr_arbiter.v"
verilog axi_crossbar_v2_1  "c:/Users/brian/GitHub/hdl/projects/fmcomms1/zed/fmcomms1_zed.srcs/sources_1/ipshared/xilinx.com/axi_crossbar_v2_1/379ac2ec/hdl/verilog/axi_crossbar_v2_1_addr_decoder.v"
verilog axi_crossbar_v2_1  "c:/Users/brian/GitHub/hdl/projects/fmcomms1/zed/fmcomms1_zed.srcs/sources_1/ipshared/xilinx.com/axi_crossbar_v2_1/379ac2ec/hdl/verilog/axi_crossbar_v2_1_arbiter_resp.v"
verilog axi_crossbar_v2_1  "c:/Users/brian/GitHub/hdl/projects/fmcomms1/zed/fmcomms1_zed.srcs/sources_1/ipshared/xilinx.com/axi_crossbar_v2_1/379ac2ec/hdl/verilog/axi_crossbar_v2_1_crossbar_sasd.v"
verilog axi_crossbar_v2_1  "c:/Users/brian/GitHub/hdl/projects/fmcomms1/zed/fmcomms1_zed.srcs/sources_1/ipshared/xilinx.com/axi_crossbar_v2_1/379ac2ec/hdl/verilog/axi_crossbar_v2_1_crossbar.v"
verilog axi_crossbar_v2_1  "c:/Users/brian/GitHub/hdl/projects/fmcomms1/zed/fmcomms1_zed.srcs/sources_1/ipshared/xilinx.com/axi_crossbar_v2_1/379ac2ec/hdl/verilog/axi_crossbar_v2_1_decerr_slave.v"
verilog axi_crossbar_v2_1  "c:/Users/brian/GitHub/hdl/projects/fmcomms1/zed/fmcomms1_zed.srcs/sources_1/ipshared/xilinx.com/axi_crossbar_v2_1/379ac2ec/hdl/verilog/axi_crossbar_v2_1_si_transactor.v"
verilog axi_crossbar_v2_1  "c:/Users/brian/GitHub/hdl/projects/fmcomms1/zed/fmcomms1_zed.srcs/sources_1/ipshared/xilinx.com/axi_crossbar_v2_1/379ac2ec/hdl/verilog/axi_crossbar_v2_1_splitter.v"
verilog axi_crossbar_v2_1  "c:/Users/brian/GitHub/hdl/projects/fmcomms1/zed/fmcomms1_zed.srcs/sources_1/ipshared/xilinx.com/axi_crossbar_v2_1/379ac2ec/hdl/verilog/axi_crossbar_v2_1_wdata_mux.v"
verilog axi_crossbar_v2_1  "c:/Users/brian/GitHub/hdl/projects/fmcomms1/zed/fmcomms1_zed.srcs/sources_1/ipshared/xilinx.com/axi_crossbar_v2_1/379ac2ec/hdl/verilog/axi_crossbar_v2_1_wdata_router.v"
verilog axi_crossbar_v2_1  "c:/Users/brian/GitHub/hdl/projects/fmcomms1/zed/fmcomms1_zed.srcs/sources_1/ipshared/xilinx.com/axi_crossbar_v2_1/379ac2ec/hdl/verilog/axi_crossbar_v2_1_axi_crossbar.v"
verilog xil_defaultlib  "c:/Users/brian/GitHub/hdl/projects/fmcomms1/zed/fmcomms1_zed.srcs/sources_1/bd/system/ip/system_xbar_0/sim/system_xbar_0.v"
vhdl proc_sys_reset_v5_0 "c:/Users/brian/GitHub/hdl/projects/fmcomms1/zed/fmcomms1_zed.srcs/sources_1/ipshared/xilinx.com/proc_sys_reset_v5_0/48b3f032/hdl/src/vhdl/upcnt_n.vhd"
vhdl proc_sys_reset_v5_0 "c:/Users/brian/GitHub/hdl/projects/fmcomms1/zed/fmcomms1_zed.srcs/sources_1/ipshared/xilinx.com/proc_sys_reset_v5_0/48b3f032/hdl/src/vhdl/sequence.vhd"
vhdl proc_sys_reset_v5_0 "c:/Users/brian/GitHub/hdl/projects/fmcomms1/zed/fmcomms1_zed.srcs/sources_1/ipshared/xilinx.com/proc_sys_reset_v5_0/48b3f032/hdl/src/vhdl/lpf.vhd"
vhdl proc_sys_reset_v5_0 "c:/Users/brian/GitHub/hdl/projects/fmcomms1/zed/fmcomms1_zed.srcs/sources_1/ipshared/xilinx.com/proc_sys_reset_v5_0/48b3f032/hdl/src/vhdl/proc_sys_reset.vhd"
vhdl xil_defaultlib "c:/Users/brian/GitHub/hdl/projects/fmcomms1/zed/fmcomms1_zed.srcs/sources_1/bd/system/ip/system_sys_rstgen_0/sim/system_sys_rstgen_0.vhd"
vhdl util_vector_logic_v1_0 "c:/Users/brian/GitHub/hdl/projects/fmcomms1/zed/fmcomms1_zed.srcs/sources_1/ipshared/xilinx.com/util_vector_logic_v1_0/23c3b177/hdl/util_vector_logic.vhd"
vhdl xil_defaultlib "c:/Users/brian/GitHub/hdl/projects/fmcomms1/zed/fmcomms1_zed.srcs/sources_1/bd/system/ip/system_sys_logic_inv_0/sim/system_sys_logic_inv_0.vhd"
verilog xil_defaultlib  "c:/Users/brian/GitHub/hdl/projects/fmcomms1/zed/fmcomms1_zed.srcs/sources_1/ipshared/analog.com/axi_clkgen_v1_0/common/up_drp_cntrl.v"
verilog xil_defaultlib  "c:/Users/brian/GitHub/hdl/projects/fmcomms1/zed/fmcomms1_zed.srcs/sources_1/ipshared/analog.com/axi_clkgen_v1_0/common/ad_rst.v"
verilog xil_defaultlib  "c:/Users/brian/GitHub/hdl/projects/fmcomms1/zed/fmcomms1_zed.srcs/sources_1/ipshared/analog.com/axi_clkgen_v1_0/common/up_clkgen.v"
verilog xil_defaultlib  "c:/Users/brian/GitHub/hdl/projects/fmcomms1/zed/fmcomms1_zed.srcs/sources_1/ipshared/analog.com/axi_clkgen_v1_0/common/up_axi.v"
verilog xil_defaultlib  "c:/Users/brian/GitHub/hdl/projects/fmcomms1/zed/fmcomms1_zed.srcs/sources_1/ipshared/analog.com/axi_clkgen_v1_0/common/ad_mmcm_drp.v"
verilog xil_defaultlib  "c:/Users/brian/GitHub/hdl/projects/fmcomms1/zed/fmcomms1_zed.srcs/sources_1/ipshared/analog.com/axi_clkgen_v1_0/1ee58df5/axi_clkgen.v"
verilog xil_defaultlib  "c:/Users/brian/GitHub/hdl/projects/fmcomms1/zed/fmcomms1_zed.srcs/sources_1/bd/system/ip/system_axi_hdmi_clkgen_0/sim/system_axi_hdmi_clkgen_0.v"
verilog xil_defaultlib  "c:/Users/brian/GitHub/hdl/projects/fmcomms1/zed/fmcomms1_zed.srcs/sources_1/ipshared/analog.com/axi_hdmi_tx_v1_0/common/ad_csc_1_mul.v"
verilog xil_defaultlib  "c:/Users/brian/GitHub/hdl/projects/fmcomms1/zed/fmcomms1_zed.srcs/sources_1/ipshared/analog.com/axi_hdmi_tx_v1_0/common/ad_csc_1_add.v"
verilog xil_defaultlib  "c:/Users/brian/GitHub/hdl/projects/fmcomms1/zed/fmcomms1_zed.srcs/sources_1/ipshared/analog.com/axi_hdmi_tx_v1_0/common/ad_csc_1.v"
verilog xil_defaultlib  "c:/Users/brian/GitHub/hdl/projects/fmcomms1/zed/fmcomms1_zed.srcs/sources_1/ipshared/analog.com/axi_hdmi_tx_v1_0/common/up_xfer_status.v"
verilog xil_defaultlib  "c:/Users/brian/GitHub/hdl/projects/fmcomms1/zed/fmcomms1_zed.srcs/sources_1/ipshared/analog.com/axi_hdmi_tx_v1_0/common/up_xfer_cntrl.v"
verilog xil_defaultlib  "c:/Users/brian/GitHub/hdl/projects/fmcomms1/zed/fmcomms1_zed.srcs/sources_1/ipshared/analog.com/axi_hdmi_tx_v1_0/common/up_clock_mon.v"
verilog xil_defaultlib  "c:/Users/brian/GitHub/hdl/projects/fmcomms1/zed/fmcomms1_zed.srcs/sources_1/ipshared/analog.com/axi_hdmi_tx_v1_0/common/ad_ss_444to422.v"
verilog xil_defaultlib  "c:/Users/brian/GitHub/hdl/projects/fmcomms1/zed/fmcomms1_zed.srcs/sources_1/ipshared/analog.com/axi_hdmi_tx_v1_0/common/ad_mem.v"
verilog xil_defaultlib  "c:/Users/brian/GitHub/hdl/projects/fmcomms1/zed/fmcomms1_zed.srcs/sources_1/ipshared/analog.com/axi_hdmi_tx_v1_0/common/ad_csc_RGB2CrYCb.v"
verilog xil_defaultlib  "c:/Users/brian/GitHub/hdl/projects/fmcomms1/zed/fmcomms1_zed.srcs/sources_1/ipshared/analog.com/axi_hdmi_tx_v1_0/common/up_hdmi_tx.v"
verilog xil_defaultlib  "c:/Users/brian/GitHub/hdl/projects/fmcomms1/zed/fmcomms1_zed.srcs/sources_1/ipshared/analog.com/axi_hdmi_tx_v1_0/008f4d65/axi_hdmi_tx_vdma.v"
verilog xil_defaultlib  "c:/Users/brian/GitHub/hdl/projects/fmcomms1/zed/fmcomms1_zed.srcs/sources_1/ipshared/analog.com/axi_hdmi_tx_v1_0/008f4d65/axi_hdmi_tx_core.v"
verilog xil_defaultlib  "c:/Users/brian/GitHub/hdl/projects/fmcomms1/zed/fmcomms1_zed.srcs/sources_1/ipshared/analog.com/axi_hdmi_tx_v1_0/008f4d65/axi_hdmi_tx.v"
verilog xil_defaultlib  "c:/Users/brian/GitHub/hdl/projects/fmcomms1/zed/fmcomms1_zed.srcs/sources_1/bd/system/ip/system_axi_hdmi_core_0/sim/system_axi_hdmi_core_0.v"
verilog blk_mem_gen_v8_2  "c:/Users/brian/GitHub/hdl/projects/fmcomms1/zed/fmcomms1_zed.srcs/sources_1/ipshared/xilinx.com/blk_mem_gen_v8_2/ebbf7913/simulation/blk_mem_gen_v8_2.v"
vhdl axi_datamover_v5_1 "c:/Users/brian/GitHub/hdl/projects/fmcomms1/zed/fmcomms1_zed.srcs/sources_1/ipshared/xilinx.com/axi_datamover_v5_1/730c4577/hdl/src/vhdl/axi_datamover_reset.vhd"
vhdl axi_datamover_v5_1 "c:/Users/brian/GitHub/hdl/projects/fmcomms1/zed/fmcomms1_zed.srcs/sources_1/ipshared/xilinx.com/axi_datamover_v5_1/730c4577/hdl/src/vhdl/axi_datamover_afifo_autord.vhd"
vhdl axi_datamover_v5_1 "c:/Users/brian/GitHub/hdl/projects/fmcomms1/zed/fmcomms1_zed.srcs/sources_1/ipshared/xilinx.com/axi_datamover_v5_1/730c4577/hdl/src/vhdl/axi_datamover_sfifo_autord.vhd"
vhdl axi_datamover_v5_1 "c:/Users/brian/GitHub/hdl/projects/fmcomms1/zed/fmcomms1_zed.srcs/sources_1/ipshared/xilinx.com/axi_datamover_v5_1/730c4577/hdl/src/vhdl/axi_datamover_fifo.vhd"
vhdl axi_datamover_v5_1 "c:/Users/brian/GitHub/hdl/projects/fmcomms1/zed/fmcomms1_zed.srcs/sources_1/ipshared/xilinx.com/axi_datamover_v5_1/730c4577/hdl/src/vhdl/axi_datamover_cmd_status.vhd"
vhdl axi_datamover_v5_1 "c:/Users/brian/GitHub/hdl/projects/fmcomms1/zed/fmcomms1_zed.srcs/sources_1/ipshared/xilinx.com/axi_datamover_v5_1/730c4577/hdl/src/vhdl/axi_datamover_scc.vhd"
vhdl axi_datamover_v5_1 "c:/Users/brian/GitHub/hdl/projects/fmcomms1/zed/fmcomms1_zed.srcs/sources_1/ipshared/xilinx.com/axi_datamover_v5_1/730c4577/hdl/src/vhdl/axi_datamover_strb_gen2.vhd"
vhdl axi_datamover_v5_1 "c:/Users/brian/GitHub/hdl/projects/fmcomms1/zed/fmcomms1_zed.srcs/sources_1/ipshared/xilinx.com/axi_datamover_v5_1/730c4577/hdl/src/vhdl/axi_datamover_pcc.vhd"
vhdl axi_datamover_v5_1 "c:/Users/brian/GitHub/hdl/projects/fmcomms1/zed/fmcomms1_zed.srcs/sources_1/ipshared/xilinx.com/axi_datamover_v5_1/730c4577/hdl/src/vhdl/axi_datamover_addr_cntl.vhd"
vhdl axi_datamover_v5_1 "c:/Users/brian/GitHub/hdl/projects/fmcomms1/zed/fmcomms1_zed.srcs/sources_1/ipshared/xilinx.com/axi_datamover_v5_1/730c4577/hdl/src/vhdl/axi_datamover_rdmux.vhd"
vhdl axi_datamover_v5_1 "c:/Users/brian/GitHub/hdl/projects/fmcomms1/zed/fmcomms1_zed.srcs/sources_1/ipshared/xilinx.com/axi_datamover_v5_1/730c4577/hdl/src/vhdl/axi_datamover_rddata_cntl.vhd"
vhdl axi_datamover_v5_1 "c:/Users/brian/GitHub/hdl/projects/fmcomms1/zed/fmcomms1_zed.srcs/sources_1/ipshared/xilinx.com/axi_datamover_v5_1/730c4577/hdl/src/vhdl/axi_datamover_rd_status_cntl.vhd"
vhdl axi_datamover_v5_1 "c:/Users/brian/GitHub/hdl/projects/fmcomms1/zed/fmcomms1_zed.srcs/sources_1/ipshared/xilinx.com/axi_datamover_v5_1/730c4577/hdl/src/vhdl/axi_datamover_wr_demux.vhd"
vhdl axi_datamover_v5_1 "c:/Users/brian/GitHub/hdl/projects/fmcomms1/zed/fmcomms1_zed.srcs/sources_1/ipshared/xilinx.com/axi_datamover_v5_1/730c4577/hdl/src/vhdl/axi_datamover_wrdata_cntl.vhd"
vhdl axi_datamover_v5_1 "c:/Users/brian/GitHub/hdl/projects/fmcomms1/zed/fmcomms1_zed.srcs/sources_1/ipshared/xilinx.com/axi_datamover_v5_1/730c4577/hdl/src/vhdl/axi_datamover_wr_status_cntl.vhd"
vhdl axi_datamover_v5_1 "c:/Users/brian/GitHub/hdl/projects/fmcomms1/zed/fmcomms1_zed.srcs/sources_1/ipshared/xilinx.com/axi_datamover_v5_1/730c4577/hdl/src/vhdl/axi_datamover_skid2mm_buf.vhd"
vhdl axi_datamover_v5_1 "c:/Users/brian/GitHub/hdl/projects/fmcomms1/zed/fmcomms1_zed.srcs/sources_1/ipshared/xilinx.com/axi_datamover_v5_1/730c4577/hdl/src/vhdl/axi_datamover_skid_buf.vhd"
vhdl axi_datamover_v5_1 "c:/Users/brian/GitHub/hdl/projects/fmcomms1/zed/fmcomms1_zed.srcs/sources_1/ipshared/xilinx.com/axi_datamover_v5_1/730c4577/hdl/src/vhdl/axi_datamover_rd_sf.vhd"
vhdl axi_datamover_v5_1 "c:/Users/brian/GitHub/hdl/projects/fmcomms1/zed/fmcomms1_zed.srcs/sources_1/ipshared/xilinx.com/axi_datamover_v5_1/730c4577/hdl/src/vhdl/axi_datamover_wr_sf.vhd"
vhdl axi_datamover_v5_1 "c:/Users/brian/GitHub/hdl/projects/fmcomms1/zed/fmcomms1_zed.srcs/sources_1/ipshared/xilinx.com/axi_datamover_v5_1/730c4577/hdl/src/vhdl/axi_datamover_stbs_set.vhd"
vhdl axi_datamover_v5_1 "c:/Users/brian/GitHub/hdl/projects/fmcomms1/zed/fmcomms1_zed.srcs/sources_1/ipshared/xilinx.com/axi_datamover_v5_1/730c4577/hdl/src/vhdl/axi_datamover_stbs_set_nodre.vhd"
vhdl axi_datamover_v5_1 "c:/Users/brian/GitHub/hdl/projects/fmcomms1/zed/fmcomms1_zed.srcs/sources_1/ipshared/xilinx.com/axi_datamover_v5_1/730c4577/hdl/src/vhdl/axi_datamover_ibttcc.vhd"
vhdl axi_datamover_v5_1 "c:/Users/brian/GitHub/hdl/projects/fmcomms1/zed/fmcomms1_zed.srcs/sources_1/ipshared/xilinx.com/axi_datamover_v5_1/730c4577/hdl/src/vhdl/axi_datamover_indet_btt.vhd"
vhdl axi_datamover_v5_1 "c:/Users/brian/GitHub/hdl/projects/fmcomms1/zed/fmcomms1_zed.srcs/sources_1/ipshared/xilinx.com/axi_datamover_v5_1/730c4577/hdl/src/vhdl/axi_datamover_dre_mux2_1_x_n.vhd"
vhdl axi_datamover_v5_1 "c:/Users/brian/GitHub/hdl/projects/fmcomms1/zed/fmcomms1_zed.srcs/sources_1/ipshared/xilinx.com/axi_datamover_v5_1/730c4577/hdl/src/vhdl/axi_datamover_dre_mux4_1_x_n.vhd"
vhdl axi_datamover_v5_1 "c:/Users/brian/GitHub/hdl/projects/fmcomms1/zed/fmcomms1_zed.srcs/sources_1/ipshared/xilinx.com/axi_datamover_v5_1/730c4577/hdl/src/vhdl/axi_datamover_dre_mux8_1_x_n.vhd"
vhdl axi_datamover_v5_1 "c:/Users/brian/GitHub/hdl/projects/fmcomms1/zed/fmcomms1_zed.srcs/sources_1/ipshared/xilinx.com/axi_datamover_v5_1/730c4577/hdl/src/vhdl/axi_datamover_mm2s_dre.vhd"
vhdl axi_datamover_v5_1 "c:/Users/brian/GitHub/hdl/projects/fmcomms1/zed/fmcomms1_zed.srcs/sources_1/ipshared/xilinx.com/axi_datamover_v5_1/730c4577/hdl/src/vhdl/axi_datamover_s2mm_dre.vhd"
vhdl axi_datamover_v5_1 "c:/Users/brian/GitHub/hdl/projects/fmcomms1/zed/fmcomms1_zed.srcs/sources_1/ipshared/xilinx.com/axi_datamover_v5_1/730c4577/hdl/src/vhdl/axi_datamover_ms_strb_set.vhd"
vhdl axi_datamover_v5_1 "c:/Users/brian/GitHub/hdl/projects/fmcomms1/zed/fmcomms1_zed.srcs/sources_1/ipshared/xilinx.com/axi_datamover_v5_1/730c4577/hdl/src/vhdl/axi_datamover_mssai_skid_buf.vhd"
vhdl axi_datamover_v5_1 "c:/Users/brian/GitHub/hdl/projects/fmcomms1/zed/fmcomms1_zed.srcs/sources_1/ipshared/xilinx.com/axi_datamover_v5_1/730c4577/hdl/src/vhdl/axi_datamover_slice.vhd"
vhdl axi_datamover_v5_1 "c:/Users/brian/GitHub/hdl/projects/fmcomms1/zed/fmcomms1_zed.srcs/sources_1/ipshared/xilinx.com/axi_datamover_v5_1/730c4577/hdl/src/vhdl/axi_datamover_s2mm_scatter.vhd"
vhdl axi_datamover_v5_1 "c:/Users/brian/GitHub/hdl/projects/fmcomms1/zed/fmcomms1_zed.srcs/sources_1/ipshared/xilinx.com/axi_datamover_v5_1/730c4577/hdl/src/vhdl/axi_datamover_s2mm_realign.vhd"
vhdl axi_datamover_v5_1 "c:/Users/brian/GitHub/hdl/projects/fmcomms1/zed/fmcomms1_zed.srcs/sources_1/ipshared/xilinx.com/axi_datamover_v5_1/730c4577/hdl/src/vhdl/axi_datamover_s2mm_basic_wrap.vhd"
vhdl axi_datamover_v5_1 "c:/Users/brian/GitHub/hdl/projects/fmcomms1/zed/fmcomms1_zed.srcs/sources_1/ipshared/xilinx.com/axi_datamover_v5_1/730c4577/hdl/src/vhdl/axi_datamover_s2mm_omit_wrap.vhd"
vhdl axi_datamover_v5_1 "c:/Users/brian/GitHub/hdl/projects/fmcomms1/zed/fmcomms1_zed.srcs/sources_1/ipshared/xilinx.com/axi_datamover_v5_1/730c4577/hdl/src/vhdl/axi_datamover_s2mm_full_wrap.vhd"
vhdl axi_datamover_v5_1 "c:/Users/brian/GitHub/hdl/projects/fmcomms1/zed/fmcomms1_zed.srcs/sources_1/ipshared/xilinx.com/axi_datamover_v5_1/730c4577/hdl/src/vhdl/axi_datamover_mm2s_basic_wrap.vhd"
vhdl axi_datamover_v5_1 "c:/Users/brian/GitHub/hdl/projects/fmcomms1/zed/fmcomms1_zed.srcs/sources_1/ipshared/xilinx.com/axi_datamover_v5_1/730c4577/hdl/src/vhdl/axi_datamover_mm2s_omit_wrap.vhd"
vhdl axi_datamover_v5_1 "c:/Users/brian/GitHub/hdl/projects/fmcomms1/zed/fmcomms1_zed.srcs/sources_1/ipshared/xilinx.com/axi_datamover_v5_1/730c4577/hdl/src/vhdl/axi_datamover_mm2s_full_wrap.vhd"
vhdl axi_datamover_v5_1 "c:/Users/brian/GitHub/hdl/projects/fmcomms1/zed/fmcomms1_zed.srcs/sources_1/ipshared/xilinx.com/axi_datamover_v5_1/730c4577/hdl/src/vhdl/axi_datamover.vhd"
vhdl axi_sg_v4_03 "c:/Users/brian/GitHub/hdl/projects/fmcomms1/zed/fmcomms1_zed.srcs/sources_1/ipshared/xilinx.com/axi_sg_v4_03/41f23a46/hdl/src/vhdl/axi_sg_pkg.vhd"
vhdl axi_sg_v4_03 "c:/Users/brian/GitHub/hdl/projects/fmcomms1/zed/fmcomms1_zed.srcs/sources_1/ipshared/xilinx.com/axi_sg_v4_03/41f23a46/hdl/src/vhdl/axi_sg_ftch_sm.vhd"
vhdl axi_sg_v4_03 "c:/Users/brian/GitHub/hdl/projects/fmcomms1/zed/fmcomms1_zed.srcs/sources_1/ipshared/xilinx.com/axi_sg_v4_03/41f23a46/hdl/src/vhdl/axi_sg_ftch_pntr.vhd"
vhdl axi_sg_v4_03 "c:/Users/brian/GitHub/hdl/projects/fmcomms1/zed/fmcomms1_zed.srcs/sources_1/ipshared/xilinx.com/axi_sg_v4_03/41f23a46/hdl/src/vhdl/axi_sg_ftch_cmdsts_if.vhd"
vhdl axi_sg_v4_03 "c:/Users/brian/GitHub/hdl/projects/fmcomms1/zed/fmcomms1_zed.srcs/sources_1/ipshared/xilinx.com/axi_sg_v4_03/41f23a46/hdl/src/vhdl/axi_sg_ftch_mngr.vhd"
vhdl axi_sg_v4_03 "c:/Users/brian/GitHub/hdl/projects/fmcomms1/zed/fmcomms1_zed.srcs/sources_1/ipshared/xilinx.com/axi_sg_v4_03/41f23a46/hdl/src/vhdl/axi_sg_afifo_autord.vhd"
vhdl axi_sg_v4_03 "c:/Users/brian/GitHub/hdl/projects/fmcomms1/zed/fmcomms1_zed.srcs/sources_1/ipshared/xilinx.com/axi_sg_v4_03/41f23a46/hdl/src/vhdl/axi_sg_ftch_queue.vhd"
vhdl axi_sg_v4_03 "c:/Users/brian/GitHub/hdl/projects/fmcomms1/zed/fmcomms1_zed.srcs/sources_1/ipshared/xilinx.com/axi_sg_v4_03/41f23a46/hdl/src/vhdl/axi_sg_ftch_noqueue.vhd"
vhdl axi_sg_v4_03 "c:/Users/brian/GitHub/hdl/projects/fmcomms1/zed/fmcomms1_zed.srcs/sources_1/ipshared/xilinx.com/axi_sg_v4_03/41f23a46/hdl/src/vhdl/axi_sg_ftch_q_mngr.vhd"
vhdl axi_sg_v4_03 "c:/Users/brian/GitHub/hdl/projects/fmcomms1/zed/fmcomms1_zed.srcs/sources_1/ipshared/xilinx.com/axi_sg_v4_03/41f23a46/hdl/src/vhdl/axi_sg_updt_cmdsts_if.vhd"
vhdl axi_sg_v4_03 "c:/Users/brian/GitHub/hdl/projects/fmcomms1/zed/fmcomms1_zed.srcs/sources_1/ipshared/xilinx.com/axi_sg_v4_03/41f23a46/hdl/src/vhdl/axi_sg_updt_sm.vhd"
vhdl axi_sg_v4_03 "c:/Users/brian/GitHub/hdl/projects/fmcomms1/zed/fmcomms1_zed.srcs/sources_1/ipshared/xilinx.com/axi_sg_v4_03/41f23a46/hdl/src/vhdl/axi_sg_updt_mngr.vhd"
vhdl axi_sg_v4_03 "c:/Users/brian/GitHub/hdl/projects/fmcomms1/zed/fmcomms1_zed.srcs/sources_1/ipshared/xilinx.com/axi_sg_v4_03/41f23a46/hdl/src/vhdl/axi_sg_updt_queue.vhd"
vhdl axi_sg_v4_03 "c:/Users/brian/GitHub/hdl/projects/fmcomms1/zed/fmcomms1_zed.srcs/sources_1/ipshared/xilinx.com/axi_sg_v4_03/41f23a46/hdl/src/vhdl/axi_sg_updt_noqueue.vhd"
vhdl axi_sg_v4_03 "c:/Users/brian/GitHub/hdl/projects/fmcomms1/zed/fmcomms1_zed.srcs/sources_1/ipshared/xilinx.com/axi_sg_v4_03/41f23a46/hdl/src/vhdl/axi_sg_updt_q_mngr.vhd"
vhdl axi_sg_v4_03 "c:/Users/brian/GitHub/hdl/projects/fmcomms1/zed/fmcomms1_zed.srcs/sources_1/ipshared/xilinx.com/axi_sg_v4_03/41f23a46/hdl/src/vhdl/axi_sg_intrpt.vhd"
vhdl axi_sg_v4_03 "c:/Users/brian/GitHub/hdl/projects/fmcomms1/zed/fmcomms1_zed.srcs/sources_1/ipshared/xilinx.com/axi_sg_v4_03/41f23a46/hdl/src/vhdl/axi_sg.vhd"
verilog axi_vdma_v6_2  "c:/Users/brian/GitHub/hdl/projects/fmcomms1/zed/fmcomms1_zed.srcs/sources_1/ipshared/xilinx.com/axi_vdma_v6_2/1ffe6048/hdl/src/verilog/axi_vdma_v6_2_axis_infrastructure_v1_0_util_axis2vector.v"
verilog axi_vdma_v6_2  "c:/Users/brian/GitHub/hdl/projects/fmcomms1/zed/fmcomms1_zed.srcs/sources_1/ipshared/xilinx.com/axi_vdma_v6_2/1ffe6048/hdl/src/verilog/axi_vdma_v6_2_axis_infrastructure_v1_0_util_vector2axis.v"
verilog axi_vdma_v6_2  "c:/Users/brian/GitHub/hdl/projects/fmcomms1/zed/fmcomms1_zed.srcs/sources_1/ipshared/xilinx.com/axi_vdma_v6_2/1ffe6048/hdl/src/verilog/axi_vdma_v6_2_axis_register_slice_v1_0_axisc_register_slice.v"
verilog axi_vdma_v6_2  "c:/Users/brian/GitHub/hdl/projects/fmcomms1/zed/fmcomms1_zed.srcs/sources_1/ipshared/xilinx.com/axi_vdma_v6_2/1ffe6048/hdl/src/verilog/axi_vdma_v6_2_axis_register_slice_v1_0_axis_register_slice.v"
verilog axi_vdma_v6_2  "c:/Users/brian/GitHub/hdl/projects/fmcomms1/zed/fmcomms1_zed.srcs/sources_1/ipshared/xilinx.com/axi_vdma_v6_2/1ffe6048/hdl/src/verilog/axi_vdma_v6_2_axis_dwidth_converter_v1_0_axisc_upsizer.v"
verilog axi_vdma_v6_2  "c:/Users/brian/GitHub/hdl/projects/fmcomms1/zed/fmcomms1_zed.srcs/sources_1/ipshared/xilinx.com/axi_vdma_v6_2/1ffe6048/hdl/src/verilog/axi_vdma_v6_2_axis_dwidth_converter_v1_0_axisc_downsizer.v"
verilog axi_vdma_v6_2  "c:/Users/brian/GitHub/hdl/projects/fmcomms1/zed/fmcomms1_zed.srcs/sources_1/ipshared/xilinx.com/axi_vdma_v6_2/1ffe6048/hdl/src/verilog/axi_vdma_v6_2_axis_dwidth_converter_v1_0_axis_dwidth_converter.v"
vhdl axi_vdma_v6_2 "c:/Users/brian/GitHub/hdl/projects/fmcomms1/zed/fmcomms1_zed.srcs/sources_1/ipshared/xilinx.com/axi_vdma_v6_2/1ffe6048/hdl/src/vhdl/axi_vdma_pkg.vhd"
vhdl axi_vdma_v6_2 "c:/Users/brian/GitHub/hdl/projects/fmcomms1/zed/fmcomms1_zed.srcs/sources_1/ipshared/xilinx.com/axi_vdma_v6_2/1ffe6048/hdl/src/vhdl/axi_vdma_cdc.vhd"
vhdl axi_vdma_v6_2 "c:/Users/brian/GitHub/hdl/projects/fmcomms1/zed/fmcomms1_zed.srcs/sources_1/ipshared/xilinx.com/axi_vdma_v6_2/1ffe6048/hdl/src/vhdl/axi_vdma_vid_cdc.vhd"
vhdl axi_vdma_v6_2 "c:/Users/brian/GitHub/hdl/projects/fmcomms1/zed/fmcomms1_zed.srcs/sources_1/ipshared/xilinx.com/axi_vdma_v6_2/1ffe6048/hdl/src/vhdl/axi_vdma_sg_cdc.vhd"
vhdl axi_vdma_v6_2 "c:/Users/brian/GitHub/hdl/projects/fmcomms1/zed/fmcomms1_zed.srcs/sources_1/ipshared/xilinx.com/axi_vdma_v6_2/1ffe6048/hdl/src/vhdl/axi_vdma_reset.vhd"
vhdl axi_vdma_v6_2 "c:/Users/brian/GitHub/hdl/projects/fmcomms1/zed/fmcomms1_zed.srcs/sources_1/ipshared/xilinx.com/axi_vdma_v6_2/1ffe6048/hdl/src/vhdl/axi_vdma_rst_module.vhd"
vhdl axi_vdma_v6_2 "c:/Users/brian/GitHub/hdl/projects/fmcomms1/zed/fmcomms1_zed.srcs/sources_1/ipshared/xilinx.com/axi_vdma_v6_2/1ffe6048/hdl/src/vhdl/axi_vdma_lite_if.vhd"
vhdl axi_vdma_v6_2 "c:/Users/brian/GitHub/hdl/projects/fmcomms1/zed/fmcomms1_zed.srcs/sources_1/ipshared/xilinx.com/axi_vdma_v6_2/1ffe6048/hdl/src/vhdl/axi_vdma_register.vhd"
vhdl axi_vdma_v6_2 "c:/Users/brian/GitHub/hdl/projects/fmcomms1/zed/fmcomms1_zed.srcs/sources_1/ipshared/xilinx.com/axi_vdma_v6_2/1ffe6048/hdl/src/vhdl/axi_vdma_regdirect.vhd"
vhdl axi_vdma_v6_2 "c:/Users/brian/GitHub/hdl/projects/fmcomms1/zed/fmcomms1_zed.srcs/sources_1/ipshared/xilinx.com/axi_vdma_v6_2/1ffe6048/hdl/src/vhdl/axi_vdma_reg_mux.vhd"
vhdl axi_vdma_v6_2 "c:/Users/brian/GitHub/hdl/projects/fmcomms1/zed/fmcomms1_zed.srcs/sources_1/ipshared/xilinx.com/axi_vdma_v6_2/1ffe6048/hdl/src/vhdl/axi_vdma_reg_module.vhd"
vhdl axi_vdma_v6_2 "c:/Users/brian/GitHub/hdl/projects/fmcomms1/zed/fmcomms1_zed.srcs/sources_1/ipshared/xilinx.com/axi_vdma_v6_2/1ffe6048/hdl/src/vhdl/axi_vdma_reg_if.vhd"
vhdl axi_vdma_v6_2 "c:/Users/brian/GitHub/hdl/projects/fmcomms1/zed/fmcomms1_zed.srcs/sources_1/ipshared/xilinx.com/axi_vdma_v6_2/1ffe6048/hdl/src/vhdl/axi_vdma_intrpt.vhd"
vhdl axi_vdma_v6_2 "c:/Users/brian/GitHub/hdl/projects/fmcomms1/zed/fmcomms1_zed.srcs/sources_1/ipshared/xilinx.com/axi_vdma_v6_2/1ffe6048/hdl/src/vhdl/axi_vdma_sof_gen.vhd"
vhdl axi_vdma_v6_2 "c:/Users/brian/GitHub/hdl/projects/fmcomms1/zed/fmcomms1_zed.srcs/sources_1/ipshared/xilinx.com/axi_vdma_v6_2/1ffe6048/hdl/src/vhdl/axi_vdma_skid_buf.vhd"
vhdl axi_vdma_v6_2 "c:/Users/brian/GitHub/hdl/projects/fmcomms1/zed/fmcomms1_zed.srcs/sources_1/ipshared/xilinx.com/axi_vdma_v6_2/1ffe6048/hdl/src/vhdl/axi_vdma_sfifo.vhd"
vhdl axi_vdma_v6_2 "c:/Users/brian/GitHub/hdl/projects/fmcomms1/zed/fmcomms1_zed.srcs/sources_1/ipshared/xilinx.com/axi_vdma_v6_2/1ffe6048/hdl/src/vhdl/axi_vdma_sfifo_autord.vhd"
vhdl axi_vdma_v6_2 "c:/Users/brian/GitHub/hdl/projects/fmcomms1/zed/fmcomms1_zed.srcs/sources_1/ipshared/xilinx.com/axi_vdma_v6_2/1ffe6048/hdl/src/vhdl/axi_vdma_afifo_builtin.vhd"
vhdl axi_vdma_v6_2 "c:/Users/brian/GitHub/hdl/projects/fmcomms1/zed/fmcomms1_zed.srcs/sources_1/ipshared/xilinx.com/axi_vdma_v6_2/1ffe6048/hdl/src/vhdl/axi_vdma_afifo.vhd"
vhdl axi_vdma_v6_2 "c:/Users/brian/GitHub/hdl/projects/fmcomms1/zed/fmcomms1_zed.srcs/sources_1/ipshared/xilinx.com/axi_vdma_v6_2/1ffe6048/hdl/src/vhdl/axi_vdma_afifo_autord.vhd"
vhdl axi_vdma_v6_2 "c:/Users/brian/GitHub/hdl/projects/fmcomms1/zed/fmcomms1_zed.srcs/sources_1/ipshared/xilinx.com/axi_vdma_v6_2/1ffe6048/hdl/src/vhdl/axi_vdma_mm2s_linebuf.vhd"
vhdl axi_vdma_v6_2 "c:/Users/brian/GitHub/hdl/projects/fmcomms1/zed/fmcomms1_zed.srcs/sources_1/ipshared/xilinx.com/axi_vdma_v6_2/1ffe6048/hdl/src/vhdl/axi_vdma_s2mm_linebuf.vhd"
vhdl axi_vdma_v6_2 "c:/Users/brian/GitHub/hdl/projects/fmcomms1/zed/fmcomms1_zed.srcs/sources_1/ipshared/xilinx.com/axi_vdma_v6_2/1ffe6048/hdl/src/vhdl/axi_vdma_blkmem.vhd"
vhdl axi_vdma_v6_2 "c:/Users/brian/GitHub/hdl/projects/fmcomms1/zed/fmcomms1_zed.srcs/sources_1/ipshared/xilinx.com/axi_vdma_v6_2/1ffe6048/hdl/src/vhdl/axi_vdma_fsync_gen.vhd"
vhdl axi_vdma_v6_2 "c:/Users/brian/GitHub/hdl/projects/fmcomms1/zed/fmcomms1_zed.srcs/sources_1/ipshared/xilinx.com/axi_vdma_v6_2/1ffe6048/hdl/src/vhdl/axi_vdma_vregister.vhd"
vhdl axi_vdma_v6_2 "c:/Users/brian/GitHub/hdl/projects/fmcomms1/zed/fmcomms1_zed.srcs/sources_1/ipshared/xilinx.com/axi_vdma_v6_2/1ffe6048/hdl/src/vhdl/axi_vdma_sgregister.vhd"
vhdl axi_vdma_v6_2 "c:/Users/brian/GitHub/hdl/projects/fmcomms1/zed/fmcomms1_zed.srcs/sources_1/ipshared/xilinx.com/axi_vdma_v6_2/1ffe6048/hdl/src/vhdl/axi_vdma_vaddrreg_mux.vhd"
vhdl axi_vdma_v6_2 "c:/Users/brian/GitHub/hdl/projects/fmcomms1/zed/fmcomms1_zed.srcs/sources_1/ipshared/xilinx.com/axi_vdma_v6_2/1ffe6048/hdl/src/vhdl/axi_vdma_vidreg_module.vhd"
vhdl axi_vdma_v6_2 "c:/Users/brian/GitHub/hdl/projects/fmcomms1/zed/fmcomms1_zed.srcs/sources_1/ipshared/xilinx.com/axi_vdma_v6_2/1ffe6048/hdl/src/vhdl/axi_vdma_genlock_mux.vhd"
vhdl axi_vdma_v6_2 "c:/Users/brian/GitHub/hdl/projects/fmcomms1/zed/fmcomms1_zed.srcs/sources_1/ipshared/xilinx.com/axi_vdma_v6_2/1ffe6048/hdl/src/vhdl/axi_vdma_greycoder.vhd"
vhdl axi_vdma_v6_2 "c:/Users/brian/GitHub/hdl/projects/fmcomms1/zed/fmcomms1_zed.srcs/sources_1/ipshared/xilinx.com/axi_vdma_v6_2/1ffe6048/hdl/src/vhdl/axi_vdma_genlock_mngr.vhd"
vhdl axi_vdma_v6_2 "c:/Users/brian/GitHub/hdl/projects/fmcomms1/zed/fmcomms1_zed.srcs/sources_1/ipshared/xilinx.com/axi_vdma_v6_2/1ffe6048/hdl/src/vhdl/axi_vdma_sg_if.vhd"
vhdl axi_vdma_v6_2 "c:/Users/brian/GitHub/hdl/projects/fmcomms1/zed/fmcomms1_zed.srcs/sources_1/ipshared/xilinx.com/axi_vdma_v6_2/1ffe6048/hdl/src/vhdl/axi_vdma_sm.vhd"
vhdl axi_vdma_v6_2 "c:/Users/brian/GitHub/hdl/projects/fmcomms1/zed/fmcomms1_zed.srcs/sources_1/ipshared/xilinx.com/axi_vdma_v6_2/1ffe6048/hdl/src/vhdl/axi_vdma_cmdsts_if.vhd"
vhdl axi_vdma_v6_2 "c:/Users/brian/GitHub/hdl/projects/fmcomms1/zed/fmcomms1_zed.srcs/sources_1/ipshared/xilinx.com/axi_vdma_v6_2/1ffe6048/hdl/src/vhdl/axi_vdma_sts_mngr.vhd"
vhdl axi_vdma_v6_2 "c:/Users/brian/GitHub/hdl/projects/fmcomms1/zed/fmcomms1_zed.srcs/sources_1/ipshared/xilinx.com/axi_vdma_v6_2/1ffe6048/hdl/src/vhdl/axi_vdma_mngr.vhd"
vhdl axi_vdma_v6_2 "c:/Users/brian/GitHub/hdl/projects/fmcomms1/zed/fmcomms1_zed.srcs/sources_1/ipshared/xilinx.com/axi_vdma_v6_2/1ffe6048/hdl/src/vhdl/axi_vdma_mm2s_axis_dwidth_converter.vhd"
vhdl axi_vdma_v6_2 "c:/Users/brian/GitHub/hdl/projects/fmcomms1/zed/fmcomms1_zed.srcs/sources_1/ipshared/xilinx.com/axi_vdma_v6_2/1ffe6048/hdl/src/vhdl/axi_vdma_s2mm_axis_dwidth_converter.vhd"
vhdl axi_vdma_v6_2 "c:/Users/brian/GitHub/hdl/projects/fmcomms1/zed/fmcomms1_zed.srcs/sources_1/ipshared/xilinx.com/axi_vdma_v6_2/1ffe6048/hdl/src/vhdl/axi_vdma.vhd"
vhdl xil_defaultlib "c:/Users/brian/GitHub/hdl/projects/fmcomms1/zed/fmcomms1_zed.srcs/sources_1/bd/system/ip/system_axi_hdmi_dma_0/sim/system_axi_hdmi_dma_0.vhd"
verilog xil_defaultlib  "c:/Users/brian/GitHub/hdl/projects/fmcomms1/zed/fmcomms1_zed.srcs/sources_1/bd/system/ip/system_sys_audio_clkgen_0/system_sys_audio_clkgen_0_clk_wiz.v"
verilog xil_defaultlib  "c:/Users/brian/GitHub/hdl/projects/fmcomms1/zed/fmcomms1_zed.srcs/sources_1/bd/system/ip/system_sys_audio_clkgen_0/system_sys_audio_clkgen_0.v"
vhdl xil_defaultlib "c:/Users/brian/GitHub/hdl/projects/fmcomms1/zed/fmcomms1_zed.srcs/sources_1/ipshared/analog.com/axi_spdif_tx_v1_0/common/dma_fifo.vhd"
vhdl xil_defaultlib "c:/Users/brian/GitHub/hdl/projects/fmcomms1/zed/fmcomms1_zed.srcs/sources_1/ipshared/analog.com/axi_spdif_tx_v1_0/common/pl330_dma_fifo.vhd"
vhdl xil_defaultlib "c:/Users/brian/GitHub/hdl/projects/fmcomms1/zed/fmcomms1_zed.srcs/sources_1/ipshared/analog.com/axi_spdif_tx_v1_0/common/axi_streaming_dma_tx_fifo.vhd"
vhdl xil_defaultlib "c:/Users/brian/GitHub/hdl/projects/fmcomms1/zed/fmcomms1_zed.srcs/sources_1/ipshared/analog.com/axi_spdif_tx_v1_0/common/axi_ctrlif.vhd"
vhdl xil_defaultlib "c:/Users/brian/GitHub/hdl/projects/fmcomms1/zed/fmcomms1_zed.srcs/sources_1/ipshared/analog.com/axi_spdif_tx_v1_0/7e62f61d/tx_package.vhd"
vhdl xil_defaultlib "c:/Users/brian/GitHub/hdl/projects/fmcomms1/zed/fmcomms1_zed.srcs/sources_1/ipshared/analog.com/axi_spdif_tx_v1_0/7e62f61d/tx_encoder.vhd"
vhdl xil_defaultlib "c:/Users/brian/GitHub/hdl/projects/fmcomms1/zed/fmcomms1_zed.srcs/sources_1/ipshared/analog.com/axi_spdif_tx_v1_0/7e62f61d/axi_spdif_tx.vhd"
vhdl xil_defaultlib "c:/Users/brian/GitHub/hdl/projects/fmcomms1/zed/fmcomms1_zed.srcs/sources_1/bd/system/ip/system_axi_spdif_tx_core_0/sim/system_axi_spdif_tx_core_0.vhd"
vhdl xil_defaultlib "c:/Users/brian/GitHub/hdl/projects/fmcomms1/zed/fmcomms1_zed.srcs/sources_1/ipshared/analog.com/axi_i2s_adi_v1_0/7bf23a4d/i2s_tx.vhd"
vhdl xil_defaultlib "c:/Users/brian/GitHub/hdl/projects/fmcomms1/zed/fmcomms1_zed.srcs/sources_1/ipshared/analog.com/axi_i2s_adi_v1_0/7bf23a4d/i2s_rx.vhd"
vhdl xil_defaultlib "c:/Users/brian/GitHub/hdl/projects/fmcomms1/zed/fmcomms1_zed.srcs/sources_1/ipshared/analog.com/axi_i2s_adi_v1_0/7bf23a4d/i2s_clkgen.vhd"
vhdl xil_defaultlib "c:/Users/brian/GitHub/hdl/projects/fmcomms1/zed/fmcomms1_zed.srcs/sources_1/ipshared/analog.com/axi_i2s_adi_v1_0/7bf23a4d/fifo_synchronizer.vhd"
vhdl xil_defaultlib "c:/Users/brian/GitHub/hdl/projects/fmcomms1/zed/fmcomms1_zed.srcs/sources_1/ipshared/analog.com/axi_i2s_adi_v1_0/common/axi_streaming_dma_rx_fifo.vhd"
vhdl xil_defaultlib "c:/Users/brian/GitHub/hdl/projects/fmcomms1/zed/fmcomms1_zed.srcs/sources_1/ipshared/analog.com/axi_i2s_adi_v1_0/7bf23a4d/i2s_controller.vhd"
vhdl xil_defaultlib "c:/Users/brian/GitHub/hdl/projects/fmcomms1/zed/fmcomms1_zed.srcs/sources_1/ipshared/analog.com/axi_i2s_adi_v1_0/7bf23a4d/axi_i2s_adi.vhd"
vhdl xil_defaultlib "c:/Users/brian/GitHub/hdl/projects/fmcomms1/zed/fmcomms1_zed.srcs/sources_1/bd/system/ip/system_axi_i2s_adi_0/sim/system_axi_i2s_adi_0.vhd"
vhdl xil_defaultlib "c:/Users/brian/GitHub/hdl/projects/fmcomms1/zed/fmcomms1_zed.srcs/sources_1/bd/system/ip/system_axi_iic_fmc_0/sim/system_axi_iic_fmc_0.vhd"
verilog xil_defaultlib  "c:/Users/brian/GitHub/hdl/projects/fmcomms1/zed/fmcomms1_zed.srcs/sources_1/ipshared/analog.com/axi_ad9122_v1_0/common/ad_mul.v"
verilog xil_defaultlib  "c:/Users/brian/GitHub/hdl/projects/fmcomms1/zed/fmcomms1_zed.srcs/sources_1/ipshared/analog.com/axi_ad9122_v1_0/common/ad_dds_sine.v"
verilog xil_defaultlib  "c:/Users/brian/GitHub/hdl/projects/fmcomms1/zed/fmcomms1_zed.srcs/sources_1/ipshared/analog.com/axi_ad9122_v1_0/common/ad_dds_1.v"
verilog xil_defaultlib  "c:/Users/brian/GitHub/hdl/projects/fmcomms1/zed/fmcomms1_zed.srcs/sources_1/ipshared/analog.com/axi_ad9122_v1_0/common/up_dac_channel.v"
verilog xil_defaultlib  "c:/Users/brian/GitHub/hdl/projects/fmcomms1/zed/fmcomms1_zed.srcs/sources_1/ipshared/analog.com/axi_ad9122_v1_0/common/ad_dds.v"
verilog xil_defaultlib  "c:/Users/brian/GitHub/hdl/projects/fmcomms1/zed/fmcomms1_zed.srcs/sources_1/ipshared/analog.com/axi_ad9122_v1_0/common/up_dac_common.v"
verilog xil_defaultlib  "c:/Users/brian/GitHub/hdl/projects/fmcomms1/zed/fmcomms1_zed.srcs/sources_1/ipshared/analog.com/axi_ad9122_v1_0/common/ad_serdes_out.v"
verilog xil_defaultlib  "c:/Users/brian/GitHub/hdl/projects/fmcomms1/zed/fmcomms1_zed.srcs/sources_1/ipshared/analog.com/axi_ad9122_v1_0/common/ad_serdes_clk.v"
verilog xil_defaultlib  "c:/Users/brian/GitHub/hdl/projects/fmcomms1/zed/fmcomms1_zed.srcs/sources_1/ipshared/analog.com/axi_ad9122_v1_0/f8d7169c/axi_ad9122_channel.v"
verilog xil_defaultlib  "c:/Users/brian/GitHub/hdl/projects/fmcomms1/zed/fmcomms1_zed.srcs/sources_1/ipshared/analog.com/axi_ad9122_v1_0/f8d7169c/axi_ad9122_if.v"
verilog xil_defaultlib  "c:/Users/brian/GitHub/hdl/projects/fmcomms1/zed/fmcomms1_zed.srcs/sources_1/ipshared/analog.com/axi_ad9122_v1_0/f8d7169c/axi_ad9122_core.v"
verilog xil_defaultlib  "c:/Users/brian/GitHub/hdl/projects/fmcomms1/zed/fmcomms1_zed.srcs/sources_1/ipshared/analog.com/axi_ad9122_v1_0/f8d7169c/axi_ad9122.v"
verilog xil_defaultlib  "c:/Users/brian/GitHub/hdl/projects/fmcomms1/zed/fmcomms1_zed.srcs/sources_1/bd/system/ip/system_axi_ad9122_0/sim/system_axi_ad9122_0.v"
verilog xil_defaultlib  "c:/Users/brian/GitHub/hdl/projects/fmcomms1/zed/fmcomms1_zed.srcs/sources_1/ipshared/analog.com/axi_dmac_v1_0/common/sync_gray.v"
verilog xil_defaultlib  "c:/Users/brian/GitHub/hdl/projects/fmcomms1/zed/fmcomms1_zed.srcs/sources_1/ipshared/analog.com/axi_dmac_v1_0/common/sync_bits.v"
verilog xil_defaultlib  "c:/Users/brian/GitHub/hdl/projects/fmcomms1/zed/fmcomms1_zed.srcs/sources_1/ipshared/analog.com/axi_dmac_v1_0/axi_fifo/address_sync.v"
verilog xil_defaultlib  "c:/Users/brian/GitHub/hdl/projects/fmcomms1/zed/fmcomms1_zed.srcs/sources_1/ipshared/analog.com/axi_dmac_v1_0/axi_fifo/address_gray_pipelined.v"
verilog xil_defaultlib  "c:/Users/brian/GitHub/hdl/projects/fmcomms1/zed/fmcomms1_zed.srcs/sources_1/ipshared/analog.com/axi_dmac_v1_0/b096c3cf/splitter.v"
verilog xil_defaultlib  "c:/Users/brian/GitHub/hdl/projects/fmcomms1/zed/fmcomms1_zed.srcs/sources_1/ipshared/analog.com/axi_dmac_v1_0/b096c3cf/response_handler.v"
verilog xil_defaultlib  "c:/Users/brian/GitHub/hdl/projects/fmcomms1/zed/fmcomms1_zed.srcs/sources_1/ipshared/analog.com/axi_dmac_v1_0/b096c3cf/response_generator.v"
verilog xil_defaultlib  "c:/Users/brian/GitHub/hdl/projects/fmcomms1/zed/fmcomms1_zed.srcs/sources_1/ipshared/analog.com/axi_dmac_v1_0/b096c3cf/data_mover.v"
verilog xil_defaultlib  "c:/Users/brian/GitHub/hdl/projects/fmcomms1/zed/fmcomms1_zed.srcs/sources_1/ipshared/analog.com/axi_dmac_v1_0/b096c3cf/address_generator.v"
verilog xil_defaultlib  "c:/Users/brian/GitHub/hdl/projects/fmcomms1/zed/fmcomms1_zed.srcs/sources_1/ipshared/analog.com/axi_dmac_v1_0/axi_fifo/axi_fifo.v"
verilog xil_defaultlib  "c:/Users/brian/GitHub/hdl/projects/fmcomms1/zed/fmcomms1_zed.srcs/sources_1/ipshared/analog.com/axi_dmac_v1_0/b096c3cf/src_fifo_inf.v"
verilog xil_defaultlib  "c:/Users/brian/GitHub/hdl/projects/fmcomms1/zed/fmcomms1_zed.srcs/sources_1/ipshared/analog.com/axi_dmac_v1_0/b096c3cf/src_axi_stream.v"
verilog xil_defaultlib  "c:/Users/brian/GitHub/hdl/projects/fmcomms1/zed/fmcomms1_zed.srcs/sources_1/ipshared/analog.com/axi_dmac_v1_0/b096c3cf/src_axi_mm.v"
verilog xil_defaultlib  "c:/Users/brian/GitHub/hdl/projects/fmcomms1/zed/fmcomms1_zed.srcs/sources_1/ipshared/analog.com/axi_dmac_v1_0/b096c3cf/request_generator.v"
verilog xil_defaultlib  "c:/Users/brian/GitHub/hdl/projects/fmcomms1/zed/fmcomms1_zed.srcs/sources_1/ipshared/analog.com/axi_dmac_v1_0/b096c3cf/dest_fifo_inf.v"
verilog xil_defaultlib  "c:/Users/brian/GitHub/hdl/projects/fmcomms1/zed/fmcomms1_zed.srcs/sources_1/ipshared/analog.com/axi_dmac_v1_0/b096c3cf/dest_axi_stream.v"
verilog xil_defaultlib  "c:/Users/brian/GitHub/hdl/projects/fmcomms1/zed/fmcomms1_zed.srcs/sources_1/ipshared/analog.com/axi_dmac_v1_0/b096c3cf/dest_axi_mm.v"
verilog xil_defaultlib  "c:/Users/brian/GitHub/hdl/projects/fmcomms1/zed/fmcomms1_zed.srcs/sources_1/ipshared/analog.com/axi_dmac_v1_0/b096c3cf/axi_repack.v"
verilog xil_defaultlib  "c:/Users/brian/GitHub/hdl/projects/fmcomms1/zed/fmcomms1_zed.srcs/sources_1/ipshared/analog.com/axi_dmac_v1_0/b096c3cf/axi_register_slice.v"
verilog xil_defaultlib  "c:/Users/brian/GitHub/hdl/projects/fmcomms1/zed/fmcomms1_zed.srcs/sources_1/ipshared/analog.com/axi_dmac_v1_0/b096c3cf/request_arb.v"
verilog xil_defaultlib  "c:/Users/brian/GitHub/hdl/projects/fmcomms1/zed/fmcomms1_zed.srcs/sources_1/ipshared/analog.com/axi_dmac_v1_0/b096c3cf/2d_transfer.v"
verilog xil_defaultlib  "c:/Users/brian/GitHub/hdl/projects/fmcomms1/zed/fmcomms1_zed.srcs/sources_1/ipshared/analog.com/axi_dmac_v1_0/b096c3cf/axi_dmac.v"
verilog xil_defaultlib  "c:/Users/brian/GitHub/hdl/projects/fmcomms1/zed/fmcomms1_zed.srcs/sources_1/bd/system/ip/system_axi_ad9122_dma_0/sim/system_axi_ad9122_dma_0.v"
verilog xil_defaultlib  "c:/Users/brian/GitHub/hdl/projects/fmcomms1/zed/fmcomms1_zed.srcs/sources_1/ipshared/analog.com/axi_ad9643_v1_0/common/ad_pnmon.v"
verilog xil_defaultlib  "c:/Users/brian/GitHub/hdl/projects/fmcomms1/zed/fmcomms1_zed.srcs/sources_1/ipshared/analog.com/axi_ad9643_v1_0/common/up_delay_cntrl.v"
verilog xil_defaultlib  "c:/Users/brian/GitHub/hdl/projects/fmcomms1/zed/fmcomms1_zed.srcs/sources_1/ipshared/analog.com/axi_ad9643_v1_0/common/up_adc_channel.v"
verilog xil_defaultlib  "c:/Users/brian/GitHub/hdl/projects/fmcomms1/zed/fmcomms1_zed.srcs/sources_1/ipshared/analog.com/axi_ad9643_v1_0/common/ad_lvds_in.v"
verilog xil_defaultlib  "c:/Users/brian/GitHub/hdl/projects/fmcomms1/zed/fmcomms1_zed.srcs/sources_1/ipshared/analog.com/axi_ad9643_v1_0/common/ad_lvds_clk.v"
verilog xil_defaultlib  "c:/Users/brian/GitHub/hdl/projects/fmcomms1/zed/fmcomms1_zed.srcs/sources_1/ipshared/analog.com/axi_ad9643_v1_0/common/ad_iqcor.v"
verilog xil_defaultlib  "c:/Users/brian/GitHub/hdl/projects/fmcomms1/zed/fmcomms1_zed.srcs/sources_1/ipshared/analog.com/axi_ad9643_v1_0/common/ad_dcfilter.v"
verilog xil_defaultlib  "c:/Users/brian/GitHub/hdl/projects/fmcomms1/zed/fmcomms1_zed.srcs/sources_1/ipshared/analog.com/axi_ad9643_v1_0/common/ad_datafmt.v"
verilog xil_defaultlib  "c:/Users/brian/GitHub/hdl/projects/fmcomms1/zed/fmcomms1_zed.srcs/sources_1/ipshared/analog.com/axi_ad9643_v1_0/a5bb74f1/axi_ad9643_pnmon.v"
verilog xil_defaultlib  "c:/Users/brian/GitHub/hdl/projects/fmcomms1/zed/fmcomms1_zed.srcs/sources_1/ipshared/analog.com/axi_ad9643_v1_0/common/up_adc_common.v"
verilog xil_defaultlib  "c:/Users/brian/GitHub/hdl/projects/fmcomms1/zed/fmcomms1_zed.srcs/sources_1/ipshared/analog.com/axi_ad9643_v1_0/a5bb74f1/axi_ad9643_if.v"
verilog xil_defaultlib  "c:/Users/brian/GitHub/hdl/projects/fmcomms1/zed/fmcomms1_zed.srcs/sources_1/ipshared/analog.com/axi_ad9643_v1_0/a5bb74f1/axi_ad9643_channel.v"
verilog xil_defaultlib  "c:/Users/brian/GitHub/hdl/projects/fmcomms1/zed/fmcomms1_zed.srcs/sources_1/ipshared/analog.com/axi_ad9643_v1_0/a5bb74f1/axi_ad9643.v"
verilog xil_defaultlib  "c:/Users/brian/GitHub/hdl/projects/fmcomms1/zed/fmcomms1_zed.srcs/sources_1/bd/system/ip/system_axi_ad9643_0/sim/system_axi_ad9643_0.v"
verilog xil_defaultlib  "c:/Users/brian/GitHub/hdl/projects/fmcomms1/zed/fmcomms1_zed.srcs/sources_1/bd/system/ip/system_axi_ad9643_dma_0/sim/system_axi_ad9643_dma_0.v"
verilog xil_defaultlib  "c:/Users/brian/GitHub/hdl/projects/fmcomms1/zed/fmcomms1_zed.srcs/sources_1/ipshared/analog.com/util_wfifo_v1_0/common/ad_axis_inf_rx.v"
verilog xil_defaultlib  "c:/Users/brian/GitHub/hdl/projects/fmcomms1/zed/fmcomms1_zed.srcs/sources_1/ipshared/analog.com/util_wfifo_v1_0/ca1add29/util_wfifo.v"
verilog xil_defaultlib  "c:/Users/brian/GitHub/hdl/projects/fmcomms1/zed/fmcomms1_zed.srcs/sources_1/bd/system/ip/system_wfifo_ctl_0/sim/system_wfifo_ctl_0.v"
verilog xil_defaultlib  "c:/Users/brian/GitHub/hdl/projects/fmcomms1/zed/fmcomms1_zed.srcs/sources_1/bd/system/ip/system_wfifo_mem_0/sim/system_wfifo_mem_0.v"
verilog xil_defaultlib  "c:/Users/brian/GitHub/hdl/projects/fmcomms1/zed/fmcomms1_zed.srcs/sources_1/bd/system/ip/system_ila_adc_0/sim/system_ila_adc_0.v"
verilog xil_defaultlib  "c:/Users/brian/GitHub/hdl/projects/fmcomms1/zed/fmcomms1_zed.srcs/sources_1/bd/system/ip/system_axi_register_slice_0_0/sim/system_axi_register_slice_0_0.v"
verilog xil_defaultlib  "C:/Users/brian/GitHub/hdl/projects/fmcomms1/zed/fmcomms1_zed.srcs/sources_1/bd/system/hdl/system.v"
verilog axi_protocol_converter_v2_1  "c:/Users/brian/GitHub/hdl/projects/fmcomms1/zed/fmcomms1_zed.srcs/sources_1/ipshared/xilinx.com/axi_protocol_converter_v2_1/fcff1c57/hdl/verilog/axi_protocol_converter_v2_1_a_axi3_conv.v"
verilog axi_protocol_converter_v2_1  "c:/Users/brian/GitHub/hdl/projects/fmcomms1/zed/fmcomms1_zed.srcs/sources_1/ipshared/xilinx.com/axi_protocol_converter_v2_1/fcff1c57/hdl/verilog/axi_protocol_converter_v2_1_axi3_conv.v"
verilog axi_protocol_converter_v2_1  "c:/Users/brian/GitHub/hdl/projects/fmcomms1/zed/fmcomms1_zed.srcs/sources_1/ipshared/xilinx.com/axi_protocol_converter_v2_1/fcff1c57/hdl/verilog/axi_protocol_converter_v2_1_axilite_conv.v"
verilog axi_protocol_converter_v2_1  "c:/Users/brian/GitHub/hdl/projects/fmcomms1/zed/fmcomms1_zed.srcs/sources_1/ipshared/xilinx.com/axi_protocol_converter_v2_1/fcff1c57/hdl/verilog/axi_protocol_converter_v2_1_r_axi3_conv.v"
verilog axi_protocol_converter_v2_1  "c:/Users/brian/GitHub/hdl/projects/fmcomms1/zed/fmcomms1_zed.srcs/sources_1/ipshared/xilinx.com/axi_protocol_converter_v2_1/fcff1c57/hdl/verilog/axi_protocol_converter_v2_1_w_axi3_conv.v"
verilog axi_protocol_converter_v2_1  "c:/Users/brian/GitHub/hdl/projects/fmcomms1/zed/fmcomms1_zed.srcs/sources_1/ipshared/xilinx.com/axi_protocol_converter_v2_1/fcff1c57/hdl/verilog/axi_protocol_converter_v2_1_b_downsizer.v"
verilog axi_protocol_converter_v2_1  "c:/Users/brian/GitHub/hdl/projects/fmcomms1/zed/fmcomms1_zed.srcs/sources_1/ipshared/xilinx.com/axi_protocol_converter_v2_1/fcff1c57/hdl/verilog/axi_protocol_converter_v2_1_decerr_slave.v"
verilog axi_protocol_converter_v2_1  "c:/Users/brian/GitHub/hdl/projects/fmcomms1/zed/fmcomms1_zed.srcs/sources_1/ipshared/xilinx.com/axi_protocol_converter_v2_1/fcff1c57/hdl/verilog/axi_protocol_converter_v2_1_b2s_simple_fifo.v"
verilog axi_protocol_converter_v2_1  "c:/Users/brian/GitHub/hdl/projects/fmcomms1/zed/fmcomms1_zed.srcs/sources_1/ipshared/xilinx.com/axi_protocol_converter_v2_1/fcff1c57/hdl/verilog/axi_protocol_converter_v2_1_b2s_wrap_cmd.v"
verilog axi_protocol_converter_v2_1  "c:/Users/brian/GitHub/hdl/projects/fmcomms1/zed/fmcomms1_zed.srcs/sources_1/ipshared/xilinx.com/axi_protocol_converter_v2_1/fcff1c57/hdl/verilog/axi_protocol_converter_v2_1_b2s_incr_cmd.v"
verilog axi_protocol_converter_v2_1  "c:/Users/brian/GitHub/hdl/projects/fmcomms1/zed/fmcomms1_zed.srcs/sources_1/ipshared/xilinx.com/axi_protocol_converter_v2_1/fcff1c57/hdl/verilog/axi_protocol_converter_v2_1_b2s_wr_cmd_fsm.v"
verilog axi_protocol_converter_v2_1  "c:/Users/brian/GitHub/hdl/projects/fmcomms1/zed/fmcomms1_zed.srcs/sources_1/ipshared/xilinx.com/axi_protocol_converter_v2_1/fcff1c57/hdl/verilog/axi_protocol_converter_v2_1_b2s_rd_cmd_fsm.v"
verilog axi_protocol_converter_v2_1  "c:/Users/brian/GitHub/hdl/projects/fmcomms1/zed/fmcomms1_zed.srcs/sources_1/ipshared/xilinx.com/axi_protocol_converter_v2_1/fcff1c57/hdl/verilog/axi_protocol_converter_v2_1_b2s_cmd_translator.v"
verilog axi_protocol_converter_v2_1  "c:/Users/brian/GitHub/hdl/projects/fmcomms1/zed/fmcomms1_zed.srcs/sources_1/ipshared/xilinx.com/axi_protocol_converter_v2_1/fcff1c57/hdl/verilog/axi_protocol_converter_v2_1_b2s_b_channel.v"
verilog axi_protocol_converter_v2_1  "c:/Users/brian/GitHub/hdl/projects/fmcomms1/zed/fmcomms1_zed.srcs/sources_1/ipshared/xilinx.com/axi_protocol_converter_v2_1/fcff1c57/hdl/verilog/axi_protocol_converter_v2_1_b2s_r_channel.v"
verilog axi_protocol_converter_v2_1  "c:/Users/brian/GitHub/hdl/projects/fmcomms1/zed/fmcomms1_zed.srcs/sources_1/ipshared/xilinx.com/axi_protocol_converter_v2_1/fcff1c57/hdl/verilog/axi_protocol_converter_v2_1_b2s_aw_channel.v"
verilog axi_protocol_converter_v2_1  "c:/Users/brian/GitHub/hdl/projects/fmcomms1/zed/fmcomms1_zed.srcs/sources_1/ipshared/xilinx.com/axi_protocol_converter_v2_1/fcff1c57/hdl/verilog/axi_protocol_converter_v2_1_b2s_ar_channel.v"
verilog axi_protocol_converter_v2_1  "c:/Users/brian/GitHub/hdl/projects/fmcomms1/zed/fmcomms1_zed.srcs/sources_1/ipshared/xilinx.com/axi_protocol_converter_v2_1/fcff1c57/hdl/verilog/axi_protocol_converter_v2_1_b2s.v"
verilog axi_protocol_converter_v2_1  "c:/Users/brian/GitHub/hdl/projects/fmcomms1/zed/fmcomms1_zed.srcs/sources_1/ipshared/xilinx.com/axi_protocol_converter_v2_1/fcff1c57/hdl/verilog/axi_protocol_converter_v2_1_axi_protocol_converter.v"
verilog xil_defaultlib  "c:/Users/brian/GitHub/hdl/projects/fmcomms1/zed/fmcomms1_zed.srcs/sources_1/bd/system/ip/system_auto_pc_0/sim/system_auto_pc_0.v"
verilog xil_defaultlib  "c:/Users/brian/GitHub/hdl/projects/fmcomms1/zed/fmcomms1_zed.srcs/sources_1/bd/system/ip/system_auto_pc_1/sim/system_auto_pc_1.v"
verilog xil_defaultlib  "C:/Users/brian/GitHub/hdl/projects/fmcomms1/zed/fmcomms1_zed.srcs/sources_1/imports/hdl/system_wrapper.v"
verilog xil_defaultlib  "C:/Users/brian/GitHub/hdl/library/common/ad_iobuf.v"
verilog xil_defaultlib  "C:/Users/brian/GitHub/hdl/projects/fmcomms1/zed/system_top.v"
verilog xil_defaultlib "C:/Xilinx/Vivado/2014.2/data/verilog/src/glbl.v"
