Copyright 1986-2014 Xilinx, Inc. All Rights Reserved.
-----------------------------------------------------------------------------------------
| Tool Version : Vivado v.2014.2 (win64) Build 932637 Wed Jun 11 13:33:10 MDT 2014
| Date         : Fri May 29 16:10:54 2015
| Host         : brian-P75 running 64-bit major release  (build 9200)
| Command      : report_clock_utilization -file axi_i2s_adi_clock_utilization_placed.rpt
| Design       : axi_i2s_adi
| Device       : xc7z020
-----------------------------------------------------------------------------------------

Clock Utilization Report

Table of Contents
-----------------
1. Clock Primitive Utilization
2. Details of Global Clocks
3. Details of Regional Clocks
4. Details of Multi-Regional Clocks
5. Details of I/O Clocks
6. Details of Local Clocks
7. Clock Regions : Key Resource Utilization
8. Net wise resources used in clock region X1Y0
9. Net wise resources used in clock region X1Y1

1. Clock Primitive Utilization
------------------------------

+-------+------+-----------+-----------+
| Type  | Used | Available | Num Fixed |
+-------+------+-----------+-----------+
| BUFG  |    3 |        32 |         0 |
| BUFH  |    0 |        72 |         0 |
| BUFIO |    0 |        16 |         0 |
| MMCM  |    0 |         4 |         0 |
| PLL   |    0 |         4 |         0 |
| BUFR  |    0 |        16 |         0 |
| BUFMR |    0 |         8 |         0 |
+-------+------+-----------+-----------+


2. Details of Global Clocks
---------------------------

+-------+----------------------------+-----------------------+--------------+-------+---------------+-----------+
|       |                            |                       |   Num Loads  |       |               |           |
+-------+----------------------------+-----------------------+------+-------+-------+---------------+-----------+
| Index | BUFG Cell                  | Net Name              | BELs | Sites | Fixed | MaxDelay (ns) | Skew (ns) |
+-------+----------------------------+-----------------------+------+-------+-------+---------------+-----------+
|     1 | S_AXIS_ACLK_IBUF_BUFG_inst | S_AXIS_ACLK_IBUF_BUFG |    2 |     1 |    no |         1.978 |     0.116 |
|     2 | DATA_CLK_I_IBUF_BUFG_inst  | DATA_CLK_I_IBUF_BUFG  |   29 |    12 |    no |         2.039 |     0.175 |
|     3 | S_AXI_ACLK_IBUF_BUFG_inst  | S_AXI_ACLK_IBUF_BUFG  |  274 |    75 |    no |         2.039 |     0.234 |
+-------+----------------------------+-----------------------+------+-------+-------+---------------+-----------+


3. Details of Regional Clocks
-----------------------------

4. Details of Multi-Regional Clocks
-----------------------------------

5. Details of I/O Clocks
------------------------

6. Details of Local Clocks
--------------------------

+-------+------------------------------------------------------------+----------------------------------------+--------------+-------+---------------+-----------+
|       |                                                            |                                        |   Num Loads  |       |               |           |
+-------+------------------------------------------------------------+----------------------------------------+------+-------+-------+---------------+-----------+
| Index | Local Clk Src                                              | Net Name                               | BELs | Sites | Fixed | MaxDelay (ns) | Skew (ns) |
+-------+------------------------------------------------------------+----------------------------------------+------+-------+-------+---------------+-----------+
|     1 | streaming_dma_rx_gen.rx_fifo/fifo/period_count_reg[15]_i_2 | streaming_dma_rx_gen.rx_fifo/fifo/E[0] |   16 |     5 |    no |         1.014 |     0.252 |
+-------+------------------------------------------------------------+----------------------------------------+------+-------+-------+---------------+-----------+


7. Clock Regions : Key Resource Utilization
-------------------------------------------

+-------------------+--------------+--------------+--------------+--------------+--------------+--------------+--------------+--------------+--------------+--------------+--------------+--------------+--------------+--------------+--------------+
|                   | Global Clock |     BUFRs    |    BUFMRs    |    BUFIOs    |     MMCM     |      PLL     |      GT      |      PCI     |    ILOGIC    |    OLOGIC    |      FF      |     LUTM     |    RAMB18    |    RAMB36    |    DSP48E1   |
+-------------------+------+-------+------+-------+------+-------+------+-------+------+-------+------+-------+------+-------+------+-------+------+-------+------+-------+------+-------+------+-------+------+-------+------+-------+------+-------+
| Clock Region Name | Used | Avail | Used | Avail | Used | Avail | Used | Avail | Used | Avail | Used | Avail | Used | Avail | Used | Avail | Used | Avail | Used | Avail | Used | Avail | Used | Avail | Used | Avail | Used | Avail | Used | Avail |
+-------------------+------+-------+------+-------+------+-------+------+-------+------+-------+------+-------+------+-------+------+-------+------+-------+------+-------+------+-------+------+-------+------+-------+------+-------+------+-------+
| X0Y0              |    0 |    12 |    0 |     4 |    0 |     2 |    0 |     4 |    0 |     1 |    0 |     1 |    0 |     0 |    0 |     0 |    0 |    50 |    0 |    50 |    0 | 20000 |    0 |  4000 |    0 |    60 |    0 |    30 |    0 |    60 |
| X1Y0              |    2 |    12 |    0 |     4 |    0 |     2 |    0 |     4 |    0 |     1 |    0 |     1 |    0 |     0 |    0 |     0 |    0 |    50 |    0 |    50 |  184 | 25600 |   41 |  3400 |    0 |    60 |    0 |    30 |    0 |    40 |
| X0Y1              |    0 |    12 |    0 |     0 |    0 |     0 |    0 |     0 |    0 |     0 |    0 |     0 |    0 |     0 |    0 |     0 |    0 |     0 |    0 |     0 |    0 |  9600 |    0 |  1600 |    0 |    20 |    0 |    10 |    0 |    20 |
| X1Y1              |    3 |    12 |    0 |     4 |    0 |     2 |    0 |     4 |    0 |     1 |    0 |     1 |    0 |     0 |    0 |     0 |    0 |    50 |    0 |    50 |   56 | 20800 |   40 |  3400 |    0 |    60 |    0 |    30 |    0 |    40 |
| X0Y2              |    0 |    12 |    0 |     0 |    0 |     0 |    0 |     0 |    0 |     0 |    0 |     0 |    0 |     0 |    0 |     0 |    0 |     0 |    0 |     0 |    0 |  9600 |    0 |  1600 |    0 |    20 |    0 |    10 |    0 |    20 |
| X1Y2              |    0 |    12 |    0 |     4 |    0 |     2 |    0 |     4 |    0 |     1 |    0 |     1 |    0 |     0 |    0 |     0 |    0 |    50 |    0 |    50 |    0 | 20800 |    0 |  3400 |    0 |    60 |    0 |    30 |    0 |    40 |
+-------------------+------+-------+------+-------+------+-------+------+-------+------+-------+------+-------+------+-------+------+-------+------+-------+------+-------+------+-------+------+-------+------+-------+------+-------+------+-------+
* RAMB36 site can be used as two RAMB18/FIFO18 sites


8. Net wise resources used in clock region X1Y0
-----------------------------------------------

+-------------+-------------+-------+-----------+----------+---------+-----------+---------+---------+-----+-------+----------+----------------------+
| Source Type | BUFHCE Site | Fixed | MMCM Pins | PLL Pins | GT Pins | BRAM Pins | ILOGICs | OLOGICs | FFs | LUTMs | DSP48E1s |    Clock Net Name    |
+-------------+-------------+-------+-----------+----------+---------+-----------+---------+---------+-----+-------+----------+----------------------+
| BUFG        |     ---     |   no  |         0 |        0 |       0 |         0 |       0 |       0 |   8 |     8 |        0 | DATA_CLK_I_IBUF_BUFG |
| BUFG        |     ---     |   no  |         0 |        0 |       0 |         0 |       0 |       0 | 160 |    33 |        0 | S_AXI_ACLK_IBUF_BUFG |
+-------------+-------------+-------+-----------+----------+---------+-----------+---------+---------+-----+-------+----------+----------------------+


9. Net wise resources used in clock region X1Y1
-----------------------------------------------

+-------------+-------------+-------+-----------+----------+---------+-----------+---------+---------+-----+-------+----------+-----------------------+
| Source Type | BUFHCE Site | Fixed | MMCM Pins | PLL Pins | GT Pins | BRAM Pins | ILOGICs | OLOGICs | FFs | LUTMs | DSP48E1s |     Clock Net Name    |
+-------------+-------------+-------+-----------+----------+---------+-----------+---------+---------+-----+-------+----------+-----------------------+
| BUFG        |     ---     |   no  |         0 |        0 |       0 |         0 |       0 |       0 |   2 |     0 |        0 | S_AXIS_ACLK_IBUF_BUFG |
| BUFG        |     ---     |   no  |         0 |        0 |       0 |         0 |       0 |       0 |  13 |     0 |        0 | DATA_CLK_I_IBUF_BUFG  |
| BUFG        |     ---     |   no  |         0 |        0 |       0 |         0 |       0 |       0 |  41 |    40 |        0 | S_AXI_ACLK_IBUF_BUFG  |
+-------------+-------------+-------+-----------+----------+---------+-----------+---------+---------+-----+-------+----------+-----------------------+



# Location of BUFG Primitives 
set_property LOC BUFGCTRL_X0Y17 [get_cells DATA_CLK_I_IBUF_BUFG_inst]
set_property LOC BUFGCTRL_X0Y18 [get_cells S_AXIS_ACLK_IBUF_BUFG_inst]
set_property LOC BUFGCTRL_X0Y16 [get_cells S_AXI_ACLK_IBUF_BUFG_inst]

# Location of IO Clock Primitives

# Location of MMCM Clock Primitives

# Location of BUFH Clock Primitives

# Location of BUFR Clock Primitives

# Location of BUFMR Clock Primitives

# Location of PLL Clock Primitives

# Location of IO Primitives which is load of clock spine

# Location of clock ports
set_property LOC IOB_X1Y124 [get_ports DATA_CLK_I]
set_property LOC IOB_X1Y126 [get_ports S_AXIS_ACLK]
set_property LOC IOB_X1Y128 [get_ports S_AXI_ACLK]

# Clock net "DATA_CLK_I_IBUF_BUFG" driven by instance "DATA_CLK_I_IBUF_BUFG_inst" located at site "BUFGCTRL_X0Y17"
#startgroup
create_pblock CLKAG_DATA_CLK_I_IBUF_BUFG
add_cells_to_pblock [get_pblocks  CLKAG_DATA_CLK_I_IBUF_BUFG] [get_cells  -filter { IS_PRIMITIVE==1 && PRIMITIVE_LEVEL !=INTERNAL } -of_object [get_pins -filter {DIRECTION==IN} -of_objects [get_nets -hierarchical -filter {PARENT=="DATA_CLK_I_IBUF_BUFG"}]]]
resize_pblock [get_pblocks CLKAG_DATA_CLK_I_IBUF_BUFG] -add {CLOCKREGION_X1Y0:CLOCKREGION_X1Y0 CLOCKREGION_X1Y1:CLOCKREGION_X1Y1}
#endgroup

# Clock net "S_AXIS_ACLK_IBUF_BUFG" driven by instance "S_AXIS_ACLK_IBUF_BUFG_inst" located at site "BUFGCTRL_X0Y18"
#startgroup
create_pblock CLKAG_S_AXIS_ACLK_IBUF_BUFG
add_cells_to_pblock [get_pblocks  CLKAG_S_AXIS_ACLK_IBUF_BUFG] [get_cells  -filter { IS_PRIMITIVE==1 && PRIMITIVE_LEVEL !=INTERNAL } -of_object [get_pins -filter {DIRECTION==IN} -of_objects [get_nets -hierarchical -filter {PARENT=="S_AXIS_ACLK_IBUF_BUFG"}]]]
resize_pblock [get_pblocks CLKAG_S_AXIS_ACLK_IBUF_BUFG] -add {CLOCKREGION_X1Y1:CLOCKREGION_X1Y1}
#endgroup

# Clock net "S_AXI_ACLK_IBUF_BUFG" driven by instance "S_AXI_ACLK_IBUF_BUFG_inst" located at site "BUFGCTRL_X0Y16"
#startgroup
create_pblock CLKAG_S_AXI_ACLK_IBUF_BUFG
add_cells_to_pblock [get_pblocks  CLKAG_S_AXI_ACLK_IBUF_BUFG] [get_cells  -filter { IS_PRIMITIVE==1 && PRIMITIVE_LEVEL !=INTERNAL } -of_object [get_pins -filter {DIRECTION==IN} -of_objects [get_nets -hierarchical -filter {PARENT=="S_AXI_ACLK_IBUF_BUFG"}]]]
resize_pblock [get_pblocks CLKAG_S_AXI_ACLK_IBUF_BUFG] -add {CLOCKREGION_X1Y0:CLOCKREGION_X1Y0 CLOCKREGION_X1Y1:CLOCKREGION_X1Y1}
#endgroup

# Clock net "streaming_dma_rx_gen.rx_fifo/fifo/E[0]" driven by instance "streaming_dma_rx_gen.rx_fifo/fifo/period_count_reg[15]_i_2" located at site "SLICE_X110Y38"
#startgroup
create_pblock CLKAG_streaming_dma_rx_gen.rx_fifo/fifo/E[0]
add_cells_to_pblock [get_pblocks  CLKAG_streaming_dma_rx_gen.rx_fifo/fifo/E[0]] [get_cells  -filter { IS_PRIMITIVE==1 && PRIMITIVE_LEVEL !=INTERNAL } -of_object [get_pins -filter {DIRECTION==IN} -of_objects [get_nets -hierarchical -filter {PARENT=="streaming_dma_rx_gen.rx_fifo/fifo/E[0]"}]]]
resize_pblock [get_pblocks CLKAG_streaming_dma_rx_gen.rx_fifo/fifo/E[0]] -add {CLOCKREGION_X1Y0:CLOCKREGION_X1Y0}
#endgroup
