Copyright 1986-2014 Xilinx, Inc. All Rights Reserved.
---------------------------------------------------------------------------------------
| Tool Version     : Vivado v.2014.2 (win64) Build 932637 Wed Jun 11 13:33:10 MDT 2014
| Date             : Fri May 29 16:11:26 2015
| Host             : brian-P75 running 64-bit major release  (build 9200)
| Command          : 
| Design           : axi_i2s_adi
| Device           : xc7z020clg484-1
| Design State     : Routed
| Grade            : commercial
| Process          : typical
| Characterization : Production
---------------------------------------------------------------------------------------

Power Report

Table of Contents
-----------------
1. Summary
1.1 On-Chip Components
1.2 Power Supply Summary
1.3 Confidence Level
2. Settings
2.1 Environment
2.2 Clock Constraints
3. Detailed Reports
3.1 By Hierarchy

1. Summary
----------

+--------------------------+-------+
| Total On-Chip Power (W)  | 2.342 |
| Dynamic (W)              | 2.180 |
| Device Static (W)        | 0.162 |
| Total Off-Chip Power (W) | 0.000 |
| Effective TJA (C/W)      | 11.5  |
| Max Ambient (C)          | 58.0  |
| Junction Temperature (C) | 52.0  |
| Confidence Level         | Low   |
| Setting File             | ---   |
| Simulation Activity File | ---   |
| Design Nets Matched      | NA    |
+--------------------------+-------+


1.1 On-Chip Components
----------------------

+--------------------------+-----------+----------+-----------+-----------------+
| On-Chip                  | Power (W) | Used     | Available | Utilization (%) |
+--------------------------+-----------+----------+-----------+-----------------+
| Slice Logic              |     0.199 |      628 |       --- |             --- |
|   LUT as Logic           |     0.154 |      222 |     53200 |            0.41 |
|   BUFG                   |     0.017 |        3 |        32 |            9.37 |
|   CARRY4                 |     0.013 |       16 |     13300 |            0.12 |
|   Register               |     0.011 |      240 |    106400 |            0.22 |
|   LUT as Distributed RAM |     0.004 |       40 |     17400 |            0.22 |
|   LUT as Shift Register  |    <0.001 |        1 |     17400 |           <0.01 |
|   Others                 |     0.000 |       25 |       --- |             --- |
| Signals                  |     0.715 |      532 |       --- |             --- |
| I/O                      |     1.267 |      252 |       200 |          126.00 |
| Static Power             |     0.162 |          |           |                 |
| Total                    |     2.342 |          |           |                 |
+--------------------------+-----------+----------+-----------+-----------------+


1.2 Power Supply Summary
------------------------

+-----------+-------------+-----------+-------------+------------+
| Source    | Voltage (V) | Total (A) | Dynamic (A) | Static (A) |
+-----------+-------------+-----------+-------------+------------+
| Vccint    |       1.000 |     1.206 |       1.186 |      0.020 |
| Vccaux    |       1.800 |     0.103 |       0.081 |      0.022 |
| Vcco33    |       3.300 |     0.000 |       0.000 |      0.000 |
| Vcco25    |       2.500 |     0.000 |       0.000 |      0.000 |
| Vcco18    |       1.800 |     0.472 |       0.471 |      0.001 |
| Vcco15    |       1.500 |     0.000 |       0.000 |      0.000 |
| Vcco135   |       1.350 |     0.000 |       0.000 |      0.000 |
| Vcco12    |       1.200 |     0.000 |       0.000 |      0.000 |
| Vccaux_io |       1.800 |     0.000 |       0.000 |      0.000 |
| Vccbram   |       1.000 |     0.001 |       0.000 |      0.001 |
| MGTAVcc   |       1.000 |     0.000 |       0.000 |      0.000 |
| MGTAVtt   |       1.200 |     0.000 |       0.000 |      0.000 |
| MGTVccaux |       1.800 |     0.000 |       0.000 |      0.000 |
| Vccpint   |       1.000 |     0.039 |       0.000 |      0.039 |
| Vccpaux   |       1.800 |     0.010 |       0.000 |      0.010 |
| Vccpll    |       1.800 |     0.003 |       0.000 |      0.003 |
| Vcco_ddr  |       1.500 |     0.000 |       0.000 |      0.000 |
| Vcco_mio0 |       1.800 |     0.000 |       0.000 |      0.000 |
| Vcco_mio1 |       1.800 |     0.000 |       0.000 |      0.000 |
| Vccadc    |       1.800 |     0.020 |       0.000 |      0.020 |
+-----------+-------------+-----------+-------------+------------+


1.3 Confidence Level
--------------------

+-----------------------------+------------+--------------------------------------------------------+--------------------------------------------------------------------------------------------------------------------+
| User Input Data             | Confidence | Details                                                | Action                                                                                                             |
+-----------------------------+------------+--------------------------------------------------------+--------------------------------------------------------------------------------------------------------------------+
| Design implementation state | High       | Design is routed                                       |                                                                                                                    |
| Clock nodes activity        | Low        | User specified less than 75% of clocks                 | Provide missing clock activity with a constraint file, simulation results or by editing the "By Clock Domain" view |
| I/O nodes activity          | Low        | More than 75% of inputs are missing user specification | Provide missing input activity with simulation results or by editing the "By Resource Type -> I/Os" view           |
| Internal nodes activity     | Medium     | User specified less than 25% of internal nodes         | Provide missing internal nodes activity with simulation results or by editing the "By Resource Type" views         |
| Device models               | High       | Device models are Production                           |                                                                                                                    |
|                             |            |                                                        |                                                                                                                    |
| Overall confidence level    | Low        |                                                        |                                                                                                                    |
+-----------------------------+------------+--------------------------------------------------------+--------------------------------------------------------------------------------------------------------------------+


2. Settings
-----------

2.1 Environment
---------------

+-----------------------+------------------------+
| Ambient Temp (C)      | 25.0                   |
| ThetaJA (C/W)         | 11.5                   |
| Airflow (LFM)         | 250                    |
| Heat Sink             | none                   |
| ThetaSA (C/W)         | 0.0                    |
| Board Selection       | medium (10"x10")       |
| # of Board Layers     | 8to11 (8 to 11 Layers) |
| Board Temperature (C) | 25.0                   |
+-----------------------+------------------------+


2.2 Clock Constraints
---------------------

+-------+--------+-----------------+
| Clock | Domain | Constraint (ns) |
+-------+--------+-----------------+


3. Detailed Reports
-------------------

3.1 By Hierarchy
----------------

+--------------------------------+-----------+
| Name                           | Power (W) |
+--------------------------------+-----------+
| axi_i2s_adi                    |     2.180 |
|   ctrl                         |     0.105 |
|     clkgen                     |     0.043 |
|     rx_gen.rx                  |     0.002 |
|     rx_gen.rx_sync             |     0.012 |
|       fifo_reg_0_3_0_4         |    <0.001 |
|     tx_gen.tx                  |     0.023 |
|     tx_sync                    |     0.018 |
|       fifo_reg_0_3_0_4         |    <0.001 |
|   ctrlif                       |     0.074 |
|   streaming_dma_rx_gen.rx_fifo |     0.127 |
|     fifo                       |     0.047 |
|       data_fifo_reg_0_7_0_5    |     0.000 |
|       data_fifo_reg_0_7_12_17  |     0.000 |
|       data_fifo_reg_0_7_18_23  |     0.000 |
|       data_fifo_reg_0_7_6_11   |     0.000 |
|   streaming_dma_tx_gen.tx_fifo |     0.052 |
|     fifo                       |     0.049 |
|       data_fifo_reg_0_7_0_5    |     0.001 |
|       data_fifo_reg_0_7_12_17  |     0.001 |
|       data_fifo_reg_0_7_18_23  |     0.001 |
|       data_fifo_reg_0_7_6_11   |     0.001 |
+--------------------------------+-----------+


