Copyright 1986-2014 Xilinx, Inc. All Rights Reserved.
----------------------------------------------------------------------------------------------
| Tool Version : Vivado v.2014.2 (win64) Build 932637 Wed Jun 11 13:33:10 MDT 2014
| Date         : Tue Jun 09 15:44:48 2015
| Host         : brian-P75 running 64-bit major release  (build 9200)
| Command      : report_control_sets -verbose -file kaos_tx_dma_ifc03_control_sets_placed.rpt
| Design       : kaos_tx_dma_ifc03
| Device       : xc7z020
----------------------------------------------------------------------------------------------

Control Set Information

Table of Contents
-----------------
1. Summary
2. Flip-Flop Distribution
3. Detailed Control Set Information

1. Summary
----------

+-------------------------------------------------------------------+-------+
|                               Status                              | Count |
+-------------------------------------------------------------------+-------+
| Number of unique control sets                                     |     4 |
| Minimum Number of register sites lost to control set restrictions |    16 |
+-------------------------------------------------------------------+-------+


2. Flip-Flop Distribution
-------------------------

+--------------+-----------------------+------------------------+-----------------+--------------+
| Clock Enable | Synchronous Set/Reset | Asynchronous Set/Reset | Total Registers | Total Slices |
+--------------+-----------------------+------------------------+-----------------+--------------+
| No           | No                    | No                     |               2 |            2 |
| No           | No                    | Yes                    |               0 |            0 |
| No           | Yes                   | No                     |               6 |            4 |
| Yes          | No                    | No                     |              32 |           16 |
| Yes          | No                    | Yes                    |               0 |            0 |
| Yes          | Yes                   | No                     |               0 |            0 |
+--------------+-----------------------+------------------------+-----------------+--------------+


3. Detailed Control Set Information
-----------------------------------

+-----------------------------+---------------------+------------------+------------------+----------------+
|         Clock Signal        |    Enable Signal    | Set/Reset Signal | Slice Load Count | Bel Load Count |
+-----------------------------+---------------------+------------------+------------------+----------------+
|  xmtr_data_enable_IBUF_BUFG |                     |                  |                1 |              1 |
|  clk_IBUF_BUFG              |                     |                  |                1 |              1 |
|  xmtr_data_enable_IBUF_BUFG |                     | dma_rd_reg       |                4 |              6 |
|  clk_IBUF_BUFG              | dma_fifo_valid_IBUF |                  |               16 |             32 |
+-----------------------------+---------------------+------------------+------------------+----------------+


