Design Route Status
                                               :      # nets :
   ------------------------------------------- : ----------- :
   # of logical nets.......................... :       49324 :
       # of nets not needing routing.......... :       16792 :
           # of internally routed nets........ :       13631 :
           # of nets with no loads............ :        3161 :
       # of routable nets..................... :       32532 :
           # of fully routed nets............. :       32532 :
       # of nets with routing errors.......... :           0 :
   ------------------------------------------- : ----------- :

